\relax 
\providecommand\hyper@newdestlabel[2]{}
\providecommand*{\memsetcounter}[2]{}
\catcode `"\active 
\providecommand\HyperFirstAtBeginDocument{\AtBeginDocument}
\HyperFirstAtBeginDocument{\ifx\hyper@anchor\@undefined
\global\let\oldcontentsline\contentsline
\gdef\contentsline#1#2#3#4{\oldcontentsline{#1}{#2}{#3}}
\global\let\oldnewlabel\newlabel
\gdef\newlabel#1#2{\newlabelxx{#1}#2}
\gdef\newlabelxx#1#2#3#4#5#6{\oldnewlabel{#1}{{#2}{#3}}}
\AtEndDocument{\ifx\hyper@anchor\@undefined
\let\contentsline\oldcontentsline
\let\newlabel\oldnewlabel
\fi}
\fi}
\global\let\hyper@last\relax 
\gdef\HyperFirstAtBeginDocument#1{#1}
\providecommand\HyField@AuxAddToFields[1]{}
\providecommand\HyField@AuxAddToCoFields[2]{}
<<<<<<< Updated upstream
<<<<<<< Updated upstream
\abx@aux@sortscheme{nty}
\abx@aux@sortnamekeyscheme{global}
=======
\abx@aux@refcontext{nty/global//global/global}
>>>>>>> Stashed changes
\select@language{brazil}
\@writefile{toc}{\select@language{brazil}}
\@writefile{lof}{\select@language{brazil}}
\@writefile{lot}{\select@language{brazil}}
<<<<<<< Updated upstream
=======
\providecommand \oddpage@label [2]{}
>>>>>>> Stashed changes
=======
\abx@aux@refcontext{nty/global//global/global}
\babel@aux{brazil}{}
\providecommand \oddpage@label [2]{}
>>>>>>> Stashed changes
\providecommand\@newglossary[4]{}
\@newglossary{acronym}{alg}{acr}{acn}
\@newglossary{symbols}{slg}{sls}{slo}
\providecommand\@glsorder[1]{}
\providecommand\@istfilename[1]{}
\@istfilename{QualificacaoThiagoFreitas.xdy}
\@glsorder{word}
\@writefile{toc}{\boolfalse {citerequest}\boolfalse {citetracker}\boolfalse {pagetracker}\boolfalse {backtracker}\relax }
\@writefile{lof}{\boolfalse {citerequest}\boolfalse {citetracker}\boolfalse {pagetracker}\boolfalse {backtracker}\relax }
\@writefile{lot}{\boolfalse {citerequest}\boolfalse {citetracker}\boolfalse {pagetracker}\boolfalse {backtracker}\relax }
<<<<<<< Updated upstream
\select@language{brazil}
\@writefile{toc}{\defcounter {refsection}{0}\relax }\@writefile{toc}{\select@language{brazil}}
\@writefile{lof}{\defcounter {refsection}{0}\relax }\@writefile{lof}{\select@language{brazil}}
\@writefile{lot}{\defcounter {refsection}{0}\relax }\@writefile{lot}{\select@language{brazil}}
<<<<<<< Updated upstream
=======
\babel@aux{brazil}{}
\abx@aux@cite{santos2016framing}
\abx@aux@segm{0}{0}{santos2016framing}
\abx@aux@cite{cabalar2011formalising}
\abx@aux@segm{0}{0}{cabalar2011formalising}
>>>>>>> Stashed changes
\@writefile{lof}{\defcounter {refsection}{0}\relax }\@writefile{lof}{\contentsline {figure}{\numberline {1}{\ignorespaces Estado inicial, considerado por este trabalho, do quebra-cabe\IeC {\c c}a de Fisherman Folly.\relax }}{8}{figure.caption.6}}
\providecommand*\caption@xref[2]{\@setref\relax\@undefined{#1}}
\newlabel{EstadoInicialFishermansFollyIntroducao}{{\M@TitleReference {1}{Estado inicial, considerado por este trabalho, do quebra-cabe\IeC {\c c}a de Fisherman Folly.\relax }}{8}{Estado inicial, considerado por este trabalho, do quebra-cabeça de Fisherman Folly.\relax }{figure.caption.6}{}}
\@writefile{toc}{\defcounter {refsection}{0}\relax }\@writefile{toc}{\contentsline {chapter}{\numberline {1}INTRODU\IeC {\c C}\IeC {\~A}O}{8}{chapter.1}}
<<<<<<< Updated upstream
\@writefile{lof}{\defcounter {refsection}{0}\relax }\@writefile{lof}{\contentsline {figure}{\numberline {2}{\ignorespaces Estado inicial, considerado por este trabalho, do quebra-cabe\IeC {\c c}a de Fisherman Folly.\relax }}{12}{figure.caption.7}}
\newlabel{EstadoInicialFishermansFolly}{{\M@TitleReference {2}{Estado inicial, considerado por este trabalho, do quebra-cabe\IeC {\c c}a de Fisherman Folly.\relax }}{12}{Estado inicial, considerado por este trabalho, do quebra-cabeça de Fisherman Folly.\relax }{figure.caption.7}{}}
\@writefile{toc}{\defcounter {refsection}{0}\relax }\@writefile{toc}{\contentsline {chapter}{\numberline {2}REVIS\IeC {\~A}O TE\IeC {\'O}RICA}{12}{chapter.2}}
\@writefile{toc}{\defcounter {refsection}{0}\relax }\@writefile{toc}{\contentsline {section}{\numberline {2.1}O DOM\IeC {\'I}NIO}{12}{section.2.1}}
\@writefile{lof}{\defcounter {refsection}{0}\relax }\@writefile{lof}{\contentsline {figure}{\numberline {3}{\ignorespaces Sequ\IeC {\^e}ncia de a\IeC {\c c}\IeC {\~o}es poss\IeC {\'\i }veis para resolver o Quebra-Cabe\IeC {\c c}a de Fisherman's Folly.\relax }}{14}{figure.caption.8}}
\newlabel{SolucaoFishermansFolly}{{\M@TitleReference {3}{Sequ\IeC {\^e}ncia de a\IeC {\c c}\IeC {\~o}es poss\IeC {\'\i }veis para resolver o Quebra-Cabe\IeC {\c c}a de Fisherman's Folly.\relax }}{14}{Sequência de ações possíveis para resolver o Quebra-Cabeça de Fisherman's Folly.\relax }{figure.caption.8}{}}
\@writefile{toc}{\defcounter {refsection}{0}\relax }\@writefile{toc}{\contentsline {section}{\numberline {2.2}ANSWER SET PROGRAMING (ASP)}{14}{section.2.2}}
\newlabel{ASPSec}{{\M@TitleReference {2.2}{ANSWER SET PROGRAMING (ASP)}}{14}{ANSWER SET PROGRAMING (ASP)}{section.2.2}{}}
=======
\abx@aux@cite{santos2016framing}
\abx@aux@segm{0}{0}{santos2016framing}
=======
>>>>>>> Stashed changes
\abx@aux@cite{Dylla2017}
\abx@aux@segm{0}{0}{Dylla2017}
\abx@aux@cite{cohn2008qualitative}
\abx@aux@segm{0}{0}{cohn2008qualitative}
<<<<<<< Updated upstream
\@writefile{toc}{\defcounter {refsection}{0}\relax }\@writefile{toc}{\contentsline {chapter}{\numberline {1}INTRODU\IeC {\c C}\IeC {\~A}O}{8}{chapter.1}}
\abx@aux@page{1}{8}
\abx@aux@cite{mccarthy1998elaboration}
\abx@aux@segm{0}{0}{mccarthy1998elaboration}
\abx@aux@segm{0}{0}{mccarthy1998elaboration}
\abx@aux@cite{Kern-Isberner2017}
\abx@aux@segm{0}{0}{Kern-Isberner2017}
\abx@aux@segm{0}{0}{Kern-Isberner2017}
\abx@aux@cite{walkega2017non}
\abx@aux@segm{0}{0}{walkega2017non}
\abx@aux@segm{0}{0}{walkega2017non}
\abx@aux@cite{Ferreira2017}
\abx@aux@segm{0}{0}{Ferreira2017}
\abx@aux@segm{0}{0}{Ferreira2017}
\abx@aux@cite{ferreira2018method}
\abx@aux@segm{0}{0}{ferreira2018method}
\abx@aux@segm{0}{0}{ferreira2018method}
\abx@aux@cite{Hoffman2013}
\abx@aux@segm{0}{0}{Hoffman2013}
\abx@aux@page{2}{9}
\abx@aux@page{3}{9}
\abx@aux@page{5}{9}
\abx@aux@page{7}{9}
\abx@aux@page{9}{9}
\abx@aux@page{11}{9}
\abx@aux@page{13}{9}
\abx@aux@page{14}{9}
\abx@aux@segm{0}{0}{ferreira2018method}
\abx@aux@cite{bianchiHARL2004}
\abx@aux@segm{0}{0}{bianchiHARL2004}
\abx@aux@segm{0}{0}{bianchiHARL2004}
\abx@aux@segm{0}{0}{santos2016framing}
\abx@aux@segm{0}{0}{santos2016framing}
\abx@aux@cite{santos2013investigation}
\abx@aux@segm{0}{0}{santos2013investigation}
\abx@aux@segm{0}{0}{santos2013investigation}
\abx@aux@cite{cabalar2011formalising}
\abx@aux@segm{0}{0}{cabalar2011formalising}
\abx@aux@segm{0}{0}{cabalar2011formalising}
\abx@aux@segm{0}{0}{ferreira2018method}
\abx@aux@segm{0}{0}{ferreira2018method}
\abx@aux@page{15}{10}
\abx@aux@page{17}{10}
\abx@aux@page{19}{10}
\abx@aux@page{21}{10}
\abx@aux@page{23}{10}
\abx@aux@page{25}{11}
\abx@aux@segm{0}{0}{cabalar2011formalising}
\abx@aux@segm{0}{0}{cabalar2011formalising}
\abx@aux@segm{0}{0}{santos2016framing}
\abx@aux@segm{0}{0}{santos2016framing}
\abx@aux@segm{0}{0}{cabalar2011formalising}
\abx@aux@segm{0}{0}{santos2013investigation}
\abx@aux@segm{0}{0}{santos2016framing}
\abx@aux@segm{0}{0}{cabalar2011formalising}
\abx@aux@segm{0}{0}{santos2013investigation}
\abx@aux@segm{0}{0}{santos2016framing}
\@writefile{lof}{\defcounter {refsection}{0}\relax }\@writefile{lof}{\contentsline {figure}{\numberline {1}{\ignorespaces Estado inicial, considerado por este trabalho, do quebra-cabe\IeC {\c c}a de Fisherman Folly.\relax }}{12}{figure.caption.6}}
\providecommand*\caption@xref[2]{\@setref\relax\@undefined{#1}}
\newlabel{EstadoInicialFishermansFolly}{{\M@TitleReference {1}{Estado inicial, considerado por este trabalho, do quebra-cabe\IeC {\c c}a de Fisherman Folly.\relax }}{12}{Estado inicial, considerado por este trabalho, do quebra-cabeça de Fisherman Folly.\relax }{figure.caption.6}{}}
\@writefile{toc}{\defcounter {refsection}{0}\relax }\@writefile{toc}{\contentsline {chapter}{\numberline {2}REVIS\IeC {\~A}O TE\IeC {\'O}RICA}{12}{chapter.2}}
\newlabel{RevisaoTeorica}{{\M@TitleReference {2}{REVIS\IeC {\~A}O TE\IeC {\'O}RICA}}{12}{REVISÃO TEÓRICA}{chapter.2}{}}
\@writefile{toc}{\defcounter {refsection}{0}\relax }\@writefile{toc}{\contentsline {section}{\numberline {2.1}O DOM\IeC {\'I}NIO}{12}{section.2.1}}
\abx@aux@segm{0}{0}{cabalar2011formalising}
\abx@aux@segm{0}{0}{cabalar2011formalising}
\abx@aux@segm{0}{0}{cabalar2011formalising}
\abx@aux@segm{0}{0}{cabalar2011formalising}
\@writefile{lof}{\defcounter {refsection}{0}\relax }\@writefile{lof}{\contentsline {figure}{\numberline {2}{\ignorespaces Representa\IeC {\c c}\IeC {\~a}o diagram\IeC {\'a}tica do estado inicial do quebra-cabe\IeC {\c c}a de Fisherman's Folly.\relax }}{13}{figure.caption.7}}
\newlabel{DiagramaFishermansFolly}{{\M@TitleReference {2}{Representa\IeC {\c c}\IeC {\~a}o diagram\IeC {\'a}tica do estado inicial do quebra-cabe\IeC {\c c}a de Fisherman's Folly.\relax }}{13}{Representação diagramática do estado inicial do quebra-cabeça de Fisherman's Folly.\relax }{figure.caption.7}{}}
\abx@aux@page{33}{13}
\abx@aux@page{34}{13}
\abx@aux@page{35}{13}
\abx@aux@page{37}{13}
\abx@aux@segm{0}{0}{cabalar2011formalising}
\abx@aux@segm{0}{0}{cabalar2011formalising}
\@writefile{lof}{\defcounter {refsection}{0}\relax }\@writefile{lof}{\contentsline {figure}{\numberline {3}{\ignorespaces Sequ\IeC {\^e}ncia de a\IeC {\c c}\IeC {\~o}es poss\IeC {\'\i }veis para resolver o Quebra-Cabe\IeC {\c c}a de Fisherman's Folly.\relax }}{14}{figure.caption.8}}
\newlabel{SolucaoFishermansFolly}{{\M@TitleReference {3}{Sequ\IeC {\^e}ncia de a\IeC {\c c}\IeC {\~o}es poss\IeC {\'\i }veis para resolver o Quebra-Cabe\IeC {\c c}a de Fisherman's Folly.\relax }}{14}{Sequência de ações possíveis para resolver o Quebra-Cabeça de Fisherman's Folly.\relax }{figure.caption.8}{}}
\abx@aux@page{41}{14}
\abx@aux@cite{eiter2009answer}
\abx@aux@segm{0}{0}{eiter2009answer}
\abx@aux@segm{0}{0}{eiter2009answer}
\abx@aux@segm{0}{0}{Hoffman2013}
=======
\abx@aux@cite{mccarthy1998elaboration}
\abx@aux@segm{0}{0}{mccarthy1998elaboration}
\abx@aux@cite{Kern-Isberner2017}
\abx@aux@segm{0}{0}{Kern-Isberner2017}
\abx@aux@cite{walkega2017non}
\abx@aux@segm{0}{0}{walkega2017non}
\abx@aux@cite{Ferreira2017}
\abx@aux@segm{0}{0}{Ferreira2017}
\abx@aux@cite{ferreira2018method}
\abx@aux@segm{0}{0}{ferreira2018method}
\abx@aux@cite{Hoffman2013}
\abx@aux@segm{0}{0}{Hoffman2013}
\abx@aux@segm{0}{0}{ferreira2018method}
\abx@aux@cite{bianchiHARL2004}
\abx@aux@segm{0}{0}{bianchiHARL2004}
\abx@aux@segm{0}{0}{santos2016framing}
\abx@aux@cite{santos2013investigation}
\abx@aux@segm{0}{0}{santos2013investigation}
\abx@aux@segm{0}{0}{cabalar2011formalising}
\abx@aux@segm{0}{0}{ferreira2018method}
\abx@aux@segm{0}{0}{cabalar2011formalising}
\abx@aux@segm{0}{0}{cabalar2011formalising}
\@writefile{lof}{\defcounter {refsection}{0}\relax }\@writefile{lof}{\contentsline {figure}{\numberline {2}{\ignorespaces Estado inicial, considerado por este trabalho, do quebra-cabe\IeC {\c c}a de Fisherman Folly.\relax }}{12}{figure.caption.7}}
\newlabel{EstadoInicialFishermansFolly}{{\M@TitleReference {2}{Estado inicial, considerado por este trabalho, do quebra-cabe\IeC {\c c}a de Fisherman Folly.\relax }}{12}{Estado inicial, considerado por este trabalho, do quebra-cabeça de Fisherman Folly.\relax }{figure.caption.7}{}}
\@writefile{toc}{\defcounter {refsection}{0}\relax }\@writefile{toc}{\contentsline {chapter}{\numberline {2}REVIS\IeC {\~A}O TE\IeC {\'O}RICA}{12}{chapter.2}}
\@writefile{toc}{\defcounter {refsection}{0}\relax }\@writefile{toc}{\contentsline {section}{\numberline {2.1}O DOM\IeC {\'I}NIO}{12}{section.2.1}}
\abx@aux@segm{0}{0}{cabalar2011formalising}
\abx@aux@segm{0}{0}{cabalar2011formalising}
\abx@aux@cite{eiter2009answer}
\abx@aux@segm{0}{0}{eiter2009answer}
\abx@aux@segm{0}{0}{Hoffman2013}
\@writefile{lof}{\defcounter {refsection}{0}\relax }\@writefile{lof}{\contentsline {figure}{\numberline {3}{\ignorespaces Sequ\IeC {\^e}ncia de a\IeC {\c c}\IeC {\~o}es poss\IeC {\'\i }veis para resolver o Quebra-Cabe\IeC {\c c}a de Fisherman's Folly.\relax }}{14}{figure.caption.8}}
\newlabel{SolucaoFishermansFolly}{{\M@TitleReference {3}{Sequ\IeC {\^e}ncia de a\IeC {\c c}\IeC {\~o}es poss\IeC {\'\i }veis para resolver o Quebra-Cabe\IeC {\c c}a de Fisherman's Folly.\relax }}{14}{Sequência de ações possíveis para resolver o Quebra-Cabeça de Fisherman's Folly.\relax }{figure.caption.8}{}}
\@writefile{toc}{\defcounter {refsection}{0}\relax }\@writefile{toc}{\contentsline {section}{\numberline {2.2}ANSWER SET PROGRAMING (ASP)}{14}{section.2.2}}
\newlabel{ASPSec}{{\M@TitleReference {2.2}{ANSWER SET PROGRAMING (ASP)}}{14}{ANSWER SET PROGRAMING (ASP)}{section.2.2}{}}
>>>>>>> Stashed changes
\abx@aux@segm{0}{0}{eiter2009answer}
\abx@aux@cite{cabalar2017Aula}
\abx@aux@segm{0}{0}{cabalar2017Aula}
\abx@aux@segm{0}{0}{cabalar2017Aula}
<<<<<<< Updated upstream
\abx@aux@segm{0}{0}{cabalar2017Aula}
\abx@aux@segm{0}{0}{cabalar2017Aula}
\abx@aux@cite{lifschitz2008answer}
\abx@aux@segm{0}{0}{lifschitz2008answer}
\abx@aux@segm{0}{0}{lifschitz2008answer}
\abx@aux@cite{gelfond1988stable}
\abx@aux@segm{0}{0}{gelfond1988stable}
\abx@aux@segm{0}{0}{gelfond1988stable}
\abx@aux@cite{gelfond2008answer}
\abx@aux@segm{0}{0}{gelfond2008answer}
>>>>>>> Stashed changes
=======
\abx@aux@cite{lifschitz2008answer}
\abx@aux@segm{0}{0}{lifschitz2008answer}
\abx@aux@cite{gelfond1988stable}
\abx@aux@segm{0}{0}{gelfond1988stable}
\abx@aux@cite{gelfond2008answer}
\abx@aux@segm{0}{0}{gelfond2008answer}
>>>>>>> Stashed changes
\@writefile{lof}{\defcounter {refsection}{0}\relax }\@writefile{lof}{\contentsline {figure}{\numberline {4}{\ignorespaces Um programa em \acrshort {asp}.\relax }}{15}{figure.caption.9}}
\newlabel{ExemploProgramaASPPassaro}{{\M@TitleReference {4}{Um programa em \acrshort {asp}.\relax }}{15}{Um programa em \acrshort {asp}.\relax }{figure.caption.9}{}}
\@writefile{lof}{\defcounter {refsection}{0}\relax }\@writefile{lof}{\contentsline {figure}{\numberline {5}{\ignorespaces Solu\IeC {\c c}\IeC {\~a}o para o programa \acrshort {asp} da figura \ref  {ExemploProgramaASPPassaro}.\relax }}{15}{figure.caption.10}}
\newlabel{AnswerSetExemploPassaro}{{\M@TitleReference {5}{Solu\IeC {\c c}\IeC {\~a}o para o programa \acrshort {asp} da figura \ref  {ExemploProgramaASPPassaro}.\relax }}{15}{Solução para o programa \acrshort {asp} da figura \ref {ExemploProgramaASPPassaro}.\relax }{figure.caption.10}{}}
<<<<<<< Updated upstream
<<<<<<< Updated upstream
\newlabel{eq:regraASP}{{1}{16}{ANSWER SET PROGRAMING (ASP)}{equation.2.2.1}{}}
\newlabel{eq:negacaoComoFalha}{{2}{16}{ANSWER SET PROGRAMING (ASP)}{equation.2.2.2}{}}
\newlabel{eq:negacaoForte}{{3}{16}{ANSWER SET PROGRAMING (ASP)}{equation.2.2.3}{}}
\@writefile{lof}{\defcounter {refsection}{0}\relax }\@writefile{lof}{\contentsline {figure}{\numberline {6}{\ignorespaces Um programa em \acrshort {asp}.\relax }}{17}{figure.caption.11}}
\newlabel{ProgramaASP}{{\M@TitleReference {6}{Um programa em \acrshort {asp}.\relax }}{17}{Um programa em \acrshort {asp}.\relax }{figure.caption.11}{}}
\newlabel{eq:equacaoDosEstadosExemplo}{{4}{17}{ANSWER SET PROGRAMING (ASP)}{equation.2.2.4}{}}
\newlabel{eq:restricaoColorir}{{5}{17}{ANSWER SET PROGRAMING (ASP)}{equation.2.2.5}{}}
\@writefile{lof}{\defcounter {refsection}{0}\relax }\@writefile{lof}{\contentsline {figure}{\numberline {7}{\ignorespaces Um programa depois do processo de \textit  {grounding}.\relax }}{18}{figure.caption.12}}
\newlabel{ProgramaDepoisGrouding}{{\M@TitleReference {7}{Um programa depois do processo de \textit  {grounding}.\relax }}{18}{Um programa depois do processo de \textit {grounding}.\relax }{figure.caption.12}{}}
\@writefile{toc}{\defcounter {refsection}{0}\relax }\@writefile{toc}{\contentsline {section}{\numberline {2.3}APRENDIZADO POR REFOR\IeC {\c C}O (RL)}{18}{section.2.3}}
\newlabel{AprendizadoPorRefor\IeC {\c c}o}{{\M@TitleReference {2.3}{APRENDIZADO POR REFOR\IeC {\c C}O (RL)}}{18}{APRENDIZADO POR REFORÇO (RL)}{section.2.3}{}}
\newlabel{eq:equacaoDeTMDP}{{6}{21}{APRENDIZADO POR REFORÇO (RL)}{equation.2.3.6}{}}
\newlabel{eq:equacaoDeRMDP}{{7}{21}{APRENDIZADO POR REFORÇO (RL)}{equation.2.3.7}{}}
\newlabel{eq:equacaoQLearning}{{8}{22}{APRENDIZADO POR REFORÇO (RL)}{equation.2.3.8}{}}
\newlabel{eq:actionChoiceRule}{{9}{22}{APRENDIZADO POR REFORÇO (RL)}{equation.2.3.9}{}}
\@writefile{toc}{\defcounter {refsection}{0}\relax }\@writefile{toc}{\contentsline {section}{\numberline {2.4}ONLINE ANSWER SET PROGRAMING PARA PROCESSO DE DECIS\IeC {\~A}O DE MARKOV (\MakeLowercase  {o}ASP(MDP)}{23}{section.2.4}}
\newlabel{eq:formulaASPTransicaoEstados}{{10}{24}{ONLINE ANSWER SET PROGRAMING PARA PROCESSO DE DECISÃO DE MARKOV (\texorpdfstring {\MakeLowercase {o}ASP(MDP)})}{equation.2.4.10}{}}
\newlabel{alg:ifline}{{\M@TitleReference {9}{ONLINE ANSWER SET PROGRAMING PARA PROCESSO DE DECIS\IeC {\~A}O DE MARKOV (\MakeLowercase  {o}ASP(MDP)}}{25}{ONLINE ANSWER SET PROGRAMING PARA PROCESSO DE DECISÃO DE MARKOV (\texorpdfstring {\MakeLowercase {o}ASP(MDP)})}{AlgoLine.1.9}{}}
\newlabel{alg:elseline}{{\M@TitleReference {14}{ONLINE ANSWER SET PROGRAMING PARA PROCESSO DE DECIS\IeC {\~A}O DE MARKOV (\MakeLowercase  {o}ASP(MDP)}}{25}{ONLINE ANSWER SET PROGRAMING PARA PROCESSO DE DECISÃO DE MARKOV (\texorpdfstring {\MakeLowercase {o}ASP(MDP)})}{AlgoLine.1.14}{}}
\newlabel{alg:update}{{\M@TitleReference {19}{ONLINE ANSWER SET PROGRAMING PARA PROCESSO DE DECIS\IeC {\~A}O DE MARKOV (\MakeLowercase  {o}ASP(MDP)}}{25}{ONLINE ANSWER SET PROGRAMING PARA PROCESSO DE DECISÃO DE MARKOV (\texorpdfstring {\MakeLowercase {o}ASP(MDP)})}{AlgoLine.1.19}{}}
\@writefile{loa}{\defcounter {refsection}{0}\relax }\@writefile{loa}{\contentsline {algocf}{\numberline {1}{\ignorespaces Algoritmo oASP(MDP).\relax }}{25}{algocf.1}}
\newlabel{alg:oaspmdp}{{\M@TitleReference {1}{ONLINE ANSWER SET PROGRAMING PARA PROCESSO DE DECIS\IeC {\~A}O DE MARKOV (\MakeLowercase  {o}ASP(MDP)}}{25}{ONLINE ANSWER SET PROGRAMING PARA PROCESSO DE DECISÃO DE MARKOV (\texorpdfstring {\MakeLowercase {o}ASP(MDP)})}{algocf.1}{}}
\@writefile{lof}{\defcounter {refsection}{0}\relax }\@writefile{lof}{\contentsline {figure}{\numberline {8}{\ignorespaces Mundo de Grades 2D.\relax }}{26}{figure.caption.14}}
\newlabel{MundoDeGrades}{{\M@TitleReference {8}{Mundo de Grades 2D.\relax }}{26}{Mundo de Grades 2D.\relax }{figure.caption.14}{}}
\@writefile{toc}{\defcounter {refsection}{0}\relax }\@writefile{toc}{\contentsline {chapter}{\numberline {3}PROPOSTA}{28}{chapter.3}}
\@writefile{toc}{\defcounter {refsection}{0}\relax }\@writefile{toc}{\contentsline {section}{\numberline {3.1}OBJETIVO}{28}{section.3.1}}
\@writefile{toc}{\defcounter {refsection}{0}\relax }\@writefile{toc}{\contentsline {section}{\numberline {3.2}JUSTIFICATIVA}{28}{section.3.2}}
\@writefile{toc}{\defcounter {refsection}{0}\relax }\@writefile{toc}{\contentsline {section}{\numberline {3.3}IMPLEMENTA\IeC {\c C}\IeC {\~A}O}{29}{section.3.3}}
\@writefile{lof}{\defcounter {refsection}{0}\relax }\@writefile{lof}{\contentsline {figure}{\numberline {9}{\ignorespaces Representa\IeC {\c c}\IeC {\~a}o diagram\IeC {\'a}tica do quebra-cabe\IeC {\c c}a de Fisherman's Folly \cite {santos2016framing}.\relax }}{31}{figure.caption.15}}
\newlabel{DiagramaFishermansFolly}{{\M@TitleReference {9}{Representa\IeC {\c c}\IeC {\~a}o diagram\IeC {\'a}tica do quebra-cabe\IeC {\c c}a de Fisherman's Folly \cite {santos2016framing}.\relax }}{31}{Representação diagramática do quebra-cabeça de Fisherman's Folly \cite {santos2016framing}.\relax }{figure.caption.15}{}}
\@writefile{toc}{\defcounter {refsection}{0}\relax }\@writefile{toc}{\contentsline {section}{\numberline {3.4}EXPERIMENTOS E RESULTADOS}{32}{section.3.4}}
\newlabel{resultados}{{\M@TitleReference {3.4}{EXPERIMENTOS E RESULTADOS}}{32}{EXPERIMENTOS E RESULTADOS}{section.3.4}{}}
\@writefile{lof}{\defcounter {refsection}{0}\relax }\@writefile{lof}{\contentsline {figure}{\numberline {10}{\ignorespaces N\IeC {\'u}mero de passos.\relax }}{34}{figure.caption.16}}
\newlabel{NumberOfSteps}{{\M@TitleReference {10}{N\IeC {\'u}mero de passos.\relax }}{34}{Número de passos.\relax }{figure.caption.16}{}}
\@writefile{lof}{\defcounter {refsection}{0}\relax }\@writefile{lof}{\contentsline {figure}{\numberline {11}{\ignorespaces Diferen\IeC {\c c}as dos valores Q, calculado com RMSD.\relax }}{35}{figure.caption.17}}
\newlabel{RMSDValues}{{\M@TitleReference {11}{Diferen\IeC {\c c}as dos valores Q, calculado com RMSD.\relax }}{35}{Diferenças dos valores Q, calculado com RMSD.\relax }{figure.caption.17}{}}
\@writefile{lof}{\defcounter {refsection}{0}\relax }\@writefile{lof}{\contentsline {figure}{\numberline {12}{\ignorespaces Valor acumulado de retorno.\relax }}{36}{figure.caption.18}}
\newlabel{ReturnValues}{{\M@TitleReference {12}{Valor acumulado de retorno.\relax }}{36}{Valor acumulado de retorno.\relax }{figure.caption.18}{}}
\@writefile{lof}{\defcounter {refsection}{0}\relax }\@writefile{lof}{\contentsline {figure}{\numberline {13}{\ignorespaces N\IeC {\'u}mero de estados visitados.\relax }}{37}{figure.caption.19}}
\newlabel{NumberOfStates}{{\M@TitleReference {13}{N\IeC {\'u}mero de estados visitados.\relax }}{37}{Número de estados visitados.\relax }{figure.caption.19}{}}
\@writefile{lof}{\defcounter {refsection}{0}\relax }\@writefile{lof}{\contentsline {figure}{\numberline {14}{\ignorespaces N\IeC {\'u}mero de pares estado/a\IeC {\c c}\IeC {\~a}o.\relax }}{38}{figure.caption.20}}
\newlabel{NumberOfStateActionPairs}{{\M@TitleReference {14}{N\IeC {\'u}mero de pares estado/a\IeC {\c c}\IeC {\~a}o.\relax }}{38}{Número de pares estado/ação.\relax }{figure.caption.20}{}}
\@writefile{toc}{\defcounter {refsection}{0}\relax }\@writefile{toc}{\contentsline {chapter}{\numberline {4}REVIS\IeC {\~A}O BIBLIOGR\IeC {\'A}FICA}{39}{chapter.4}}
\@writefile{toc}{\defcounter {refsection}{0}\relax }\@writefile{toc}{\contentsline {chapter}{\numberline {5}PR\IeC {\'O}XIMOS PASSOS}{45}{chapter.5}}
\newlabel{Pr\IeC {\'o}ximasTarefas}{{\M@TitleReference {5}{PR\IeC {\'O}XIMOS PASSOS}}{45}{PRÓXIMOS PASSOS}{chapter.5}{}}
\@writefile{lof}{\defcounter {refsection}{0}\relax }\@writefile{lof}{\contentsline {figure}{\numberline {15}{\ignorespaces Quebra-cabe\IeC {\c c}a Rope Ladders.\relax }}{45}{figure.caption.21}}
\newlabel{ropeLadders}{{\M@TitleReference {15}{Quebra-cabe\IeC {\c c}a Rope Ladders.\relax }}{45}{Quebra-cabeça Rope Ladders.\relax }{figure.caption.21}{}}
\@writefile{toc}{\defcounter {refsection}{0}\relax }\@writefile{toc}{\contentsline {section}{\numberline {5.1}CRONOGRAMA}{45}{section.5.1}}
\memsetcounter{lastsheet}{46}
\memsetcounter{lastpage}{45}
=======
\@writefile{toc}{\defcounter {refsection}{0}\relax }\@writefile{toc}{\contentsline {section}{\numberline {2.2}ANSWER SET PROGRAMING (ASP)}{15}{section.2.2}}
\newlabel{ASPSec}{{\M@TitleReference {2.2}{ANSWER SET PROGRAMING (ASP)}}{15}{ANSWER SET PROGRAMING (ASP)}{section.2.2}{}}
\abx@aux@page{43}{15}
\abx@aux@page{44}{15}
\abx@aux@page{45}{15}
\abx@aux@segm{0}{0}{lifschitz2008answer}
\abx@aux@segm{0}{0}{lifschitz2008answer}
\abx@aux@segm{0}{0}{gelfond1988stable}
\abx@aux@segm{0}{0}{lifschitz2008answer}
\abx@aux@segm{0}{0}{lifschitz2008answer}
\abx@aux@page{51}{16}
\abx@aux@page{53}{16}
\abx@aux@page{54}{16}
\abx@aux@page{56}{16}
\newlabel{eq:regraASP}{{1}{16}{ANSWER SET PROGRAMING (ASP)}{equation.2.2.1}{}}
\abx@aux@page{57}{16}
\abx@aux@page{59}{16}
\newlabel{eq:negacaoComoFalha}{{2}{16}{ANSWER SET PROGRAMING (ASP)}{equation.2.2.2}{}}
\abx@aux@segm{0}{0}{ferreira2018method}
\abx@aux@segm{0}{0}{lifschitz2008answer}
\abx@aux@segm{0}{0}{lifschitz2008answer}
\abx@aux@segm{0}{0}{eiter2009answer}
\abx@aux@segm{0}{0}{eiter2009answer}
\abx@aux@segm{0}{0}{lifschitz2008answer}
\abx@aux@segm{0}{0}{lifschitz2008answer}
\abx@aux@segm{0}{0}{lifschitz2008answer}
\abx@aux@segm{0}{0}{lifschitz2008answer}
\newlabel{eq:negacaoForte}{{3}{17}{ANSWER SET PROGRAMING (ASP)}{equation.2.2.3}{}}
\abx@aux@page{60}{17}
\newlabel{eq:equacaoDosEstadosExemplo}{{4}{17}{ANSWER SET PROGRAMING (ASP)}{equation.2.2.4}{}}
\abx@aux@page{62}{17}
\abx@aux@page{64}{17}
\newlabel{eq:restricaoColorir}{{5}{17}{ANSWER SET PROGRAMING (ASP)}{equation.2.2.5}{}}
\abx@aux@cite{hastie2009overview}
\abx@aux@segm{0}{0}{hastie2009overview}
\abx@aux@segm{0}{0}{hastie2009overview}
\abx@aux@segm{0}{0}{hastie2009overview}
\abx@aux@cite{barlow1989unsupervised}
\abx@aux@segm{0}{0}{barlow1989unsupervised}
\abx@aux@segm{0}{0}{barlow1989unsupervised}
\abx@aux@cite{JAIN2010651}
\abx@aux@segm{0}{0}{JAIN2010651}
\@writefile{lof}{\defcounter {refsection}{0}\relax }\@writefile{lof}{\contentsline {figure}{\numberline {6}{\ignorespaces Um programa em \acrshort {asp}.\relax }}{18}{figure.caption.11}}
\newlabel{ProgramaASP}{{\M@TitleReference {6}{Um programa em \acrshort {asp}.\relax }}{18}{Um programa em \acrshort {asp}.\relax }{figure.caption.11}{}}
\@writefile{lof}{\defcounter {refsection}{0}\relax }\@writefile{lof}{\contentsline {figure}{\numberline {7}{\ignorespaces O programa, representado na figura \ref  {ProgramaASP}, depois do processo de \textit  {grounding}.\relax }}{18}{figure.caption.12}}
\newlabel{ProgramaDepoisGrouding}{{\M@TitleReference {7}{O programa, representado na figura \ref  {ProgramaASP}, depois do processo de \textit  {grounding}.\relax }}{18}{O programa, representado na figura \ref {ProgramaASP}, depois do processo de \textit {grounding}.\relax }{figure.caption.12}{}}
\@writefile{toc}{\defcounter {refsection}{0}\relax }\@writefile{toc}{\contentsline {section}{\numberline {2.3}APRENDIZADO POR REFOR\IeC {\c C}O (RL)}{18}{section.2.3}}
\newlabel{AprendizadoPorRefor\IeC {\c c}o}{{\M@TitleReference {2.3}{APRENDIZADO POR REFOR\IeC {\c C}O (RL)}}{18}{APRENDIZADO POR REFORÇO (RL)}{section.2.3}{}}
\abx@aux@page{70}{18}
\abx@aux@page{71}{18}
=======
\abx@aux@segm{0}{0}{lifschitz2008answer}
\abx@aux@segm{0}{0}{gelfond1988stable}
\abx@aux@segm{0}{0}{lifschitz2008answer}
\abx@aux@segm{0}{0}{ferreira2018method}
\newlabel{eq:regraASP}{{1}{16}{ANSWER SET PROGRAMING (ASP)}{equation.2.2.1}{}}
\newlabel{eq:negacaoComoFalha}{{2}{16}{ANSWER SET PROGRAMING (ASP)}{equation.2.2.2}{}}
\newlabel{eq:negacaoForte}{{3}{16}{ANSWER SET PROGRAMING (ASP)}{equation.2.2.3}{}}
\abx@aux@segm{0}{0}{lifschitz2008answer}
\abx@aux@segm{0}{0}{eiter2009answer}
\abx@aux@segm{0}{0}{lifschitz2008answer}
\abx@aux@segm{0}{0}{lifschitz2008answer}
\@writefile{lof}{\defcounter {refsection}{0}\relax }\@writefile{lof}{\contentsline {figure}{\numberline {6}{\ignorespaces Um programa em \acrshort {asp}.\relax }}{17}{figure.caption.11}}
\newlabel{ProgramaASP}{{\M@TitleReference {6}{Um programa em \acrshort {asp}.\relax }}{17}{Um programa em \acrshort {asp}.\relax }{figure.caption.11}{}}
\newlabel{eq:equacaoDosEstadosExemplo}{{4}{17}{ANSWER SET PROGRAMING (ASP)}{equation.2.2.4}{}}
\newlabel{eq:restricaoColorir}{{5}{17}{ANSWER SET PROGRAMING (ASP)}{equation.2.2.5}{}}
\abx@aux@cite{hastie2009overview}
\abx@aux@segm{0}{0}{hastie2009overview}
\abx@aux@cite{barlow1989unsupervised}
\abx@aux@segm{0}{0}{barlow1989unsupervised}
\@writefile{lof}{\defcounter {refsection}{0}\relax }\@writefile{lof}{\contentsline {figure}{\numberline {7}{\ignorespaces Um programa depois do processo de \textit  {grounding}.\relax }}{18}{figure.caption.12}}
\newlabel{ProgramaDepoisGrouding}{{\M@TitleReference {7}{Um programa depois do processo de \textit  {grounding}.\relax }}{18}{Um programa depois do processo de \textit {grounding}.\relax }{figure.caption.12}{}}
\@writefile{toc}{\defcounter {refsection}{0}\relax }\@writefile{toc}{\contentsline {section}{\numberline {2.3}APRENDIZADO POR REFOR\IeC {\c C}O (RL)}{18}{section.2.3}}
\newlabel{AprendizadoPorRefor\IeC {\c c}o}{{\M@TitleReference {2.3}{APRENDIZADO POR REFOR\IeC {\c C}O (RL)}}{18}{APRENDIZADO POR REFORÇO (RL)}{section.2.3}{}}
>>>>>>> Stashed changes
\abx@aux@cite{Sutton-Barto2ed}
\abx@aux@segm{0}{0}{Sutton-Barto2ed}
\abx@aux@segm{0}{0}{Sutton-Barto2ed}
\abx@aux@segm{0}{0}{Sutton-Barto2ed}
\abx@aux@segm{0}{0}{Sutton-Barto2ed}
<<<<<<< Updated upstream
\abx@aux@page{73}{19}
\abx@aux@page{74}{19}
\abx@aux@page{76}{19}
\abx@aux@page{78}{19}
\abx@aux@segm{0}{0}{Sutton-Barto2ed}
\abx@aux@segm{0}{0}{Sutton-Barto2ed}
\abx@aux@segm{0}{0}{Sutton-Barto2ed}
\abx@aux@segm{0}{0}{Sutton-Barto2ed}
=======
>>>>>>> Stashed changes
\abx@aux@segm{0}{0}{Sutton-Barto2ed}
\abx@aux@segm{0}{0}{Sutton-Barto2ed}
\abx@aux@segm{0}{0}{Sutton-Barto2ed}
\abx@aux@segm{0}{0}{Sutton-Barto2ed}
<<<<<<< Updated upstream
\abx@aux@page{80}{20}
\abx@aux@page{81}{20}
\abx@aux@page{83}{20}
\abx@aux@page{84}{20}
\abx@aux@segm{0}{0}{Sutton-Barto2ed}
\abx@aux@segm{0}{0}{Sutton-Barto2ed}
\abx@aux@segm{0}{0}{Sutton-Barto2ed}
\abx@aux@segm{0}{0}{Sutton-Barto2ed}
\abx@aux@segm{0}{0}{Sutton-Barto2ed}
\abx@aux@segm{0}{0}{Sutton-Barto2ed}
\abx@aux@page{86}{21}
\newlabel{eq:equacaoDeTMDP}{{6}{21}{APRENDIZADO POR REFORÇO (RL)}{equation.2.3.6}{}}
\newlabel{eq:equacaoDeRMDP}{{7}{21}{APRENDIZADO POR REFORÇO (RL)}{equation.2.3.7}{}}
\abx@aux@page{88}{21}
\abx@aux@page{90}{21}
\abx@aux@page{92}{21}
\abx@aux@segm{0}{0}{Sutton-Barto2ed}
\abx@aux@segm{0}{0}{Sutton-Barto2ed}
\abx@aux@segm{0}{0}{bianchiHARL2004}
\abx@aux@page{94}{22}
\newlabel{eq:equacaoQLearning}{{8}{22}{APRENDIZADO POR REFORÇO (RL)}{equation.2.3.8}{}}
\abx@aux@page{95}{22}
\abx@aux@segm{0}{0}{ferreira2018method}
\abx@aux@segm{0}{0}{ferreira2018method}
\abx@aux@cite{van2009logic}
\abx@aux@segm{0}{0}{van2009logic}
\abx@aux@segm{0}{0}{van2009logic}
\abx@aux@cite{bellman2015applied}
\abx@aux@segm{0}{0}{bellman2015applied}
\abx@aux@segm{0}{0}{bellman2015applied}
\newlabel{eq:actionChoiceRule}{{9}{23}{APRENDIZADO POR REFORÇO (RL)}{equation.2.3.9}{}}
\@writefile{toc}{\defcounter {refsection}{0}\relax }\@writefile{toc}{\contentsline {section}{\numberline {2.4}ONLINE ANSWER SET PROGRAMING PARA PROCESSO DE DECIS\IeC {\~A}O DE MARKOV (\MakeLowercase  {o}ASP(MDP))}{23}{section.2.4}}
\newlabel{secaooASPMDP}{{\M@TitleReference {2.4}{ONLINE ANSWER SET PROGRAMING PARA PROCESSO DE DECIS\IeC {\~A}O DE MARKOV (\MakeLowercase  {o}ASP(MDP))}}{23}{ONLINE ANSWER SET PROGRAMING PARA PROCESSO DE DECISÃO DE MARKOV (\texorpdfstring {\MakeLowercase {o}ASP(MDP)}))}{section.2.4}{}}
\abx@aux@page{97}{23}
\abx@aux@page{99}{23}
\abx@aux@segm{0}{0}{ferreira2018method}
\abx@aux@segm{0}{0}{ferreira2018method}
\abx@aux@segm{0}{0}{ferreira2018method}
\abx@aux@page{101}{24}
\abx@aux@page{102}{24}
\newlabel{eq:formulaASPTransicaoEstados}{{10}{24}{ONLINE ANSWER SET PROGRAMING PARA PROCESSO DE DECISÃO DE MARKOV (\texorpdfstring {\MakeLowercase {o}ASP(MDP)}))}{equation.2.4.10}{}}
\abx@aux@segm{0}{0}{ferreira2018method}
\newlabel{alg:ifline}{{\M@TitleReference {9}{ONLINE ANSWER SET PROGRAMING PARA PROCESSO DE DECIS\IeC {\~A}O DE MARKOV (\MakeLowercase  {o}ASP(MDP))}}{25}{ONLINE ANSWER SET PROGRAMING PARA PROCESSO DE DECISÃO DE MARKOV (\texorpdfstring {\MakeLowercase {o}ASP(MDP)}))}{AlgoLine.1.9}{}}
\newlabel{alg:elseline}{{\M@TitleReference {14}{ONLINE ANSWER SET PROGRAMING PARA PROCESSO DE DECIS\IeC {\~A}O DE MARKOV (\MakeLowercase  {o}ASP(MDP))}}{25}{ONLINE ANSWER SET PROGRAMING PARA PROCESSO DE DECISÃO DE MARKOV (\texorpdfstring {\MakeLowercase {o}ASP(MDP)}))}{AlgoLine.1.14}{}}
\newlabel{alg:update}{{\M@TitleReference {19}{ONLINE ANSWER SET PROGRAMING PARA PROCESSO DE DECIS\IeC {\~A}O DE MARKOV (\MakeLowercase  {o}ASP(MDP))}}{25}{ONLINE ANSWER SET PROGRAMING PARA PROCESSO DE DECISÃO DE MARKOV (\texorpdfstring {\MakeLowercase {o}ASP(MDP)}))}{AlgoLine.1.19}{}}
\@writefile{loa}{\defcounter {refsection}{0}\relax }\@writefile{loa}{\contentsline {algocf}{\numberline {1}{\ignorespaces Algoritmo oASP(MDP).\relax }}{25}{algocf.1}}
\newlabel{alg:oaspmdp}{{\M@TitleReference {1}{ONLINE ANSWER SET PROGRAMING PARA PROCESSO DE DECIS\IeC {\~A}O DE MARKOV (\MakeLowercase  {o}ASP(MDP))}}{25}{ONLINE ANSWER SET PROGRAMING PARA PROCESSO DE DECISÃO DE MARKOV (\texorpdfstring {\MakeLowercase {o}ASP(MDP)}))}{algocf.1}{}}
\@writefile{loa}{\defcounter {refsection}{0}\relax }\@writefile{loa}{\contentsline {algocf}{\numberline {1}{\ignorespaces }}{25}{algocf.1}}
\abx@aux@page{105}{25}
\abx@aux@segm{0}{0}{ferreira2018method}
\abx@aux@segm{0}{0}{ferreira2018method}
\abx@aux@segm{0}{0}{ferreira2018method}
\abx@aux@segm{0}{0}{ferreira2018method}
\@writefile{lof}{\defcounter {refsection}{0}\relax }\@writefile{lof}{\contentsline {figure}{\numberline {8}{\ignorespaces Mundo de Grades 2D.\relax }}{26}{figure.caption.14}}
\newlabel{MundoDeGrades}{{\M@TitleReference {8}{Mundo de Grades 2D.\relax }}{26}{Mundo de Grades 2D.\relax }{figure.caption.14}{}}
\abx@aux@page{109}{26}
\abx@aux@segm{0}{0}{ferreira2018method}
\abx@aux@page{110}{27}
\abx@aux@segm{0}{0}{van2009logic}
\abx@aux@segm{0}{0}{van2009logic}
\abx@aux@cite{yang2014planning}
\abx@aux@segm{0}{0}{yang2014planning}
\abx@aux@segm{0}{0}{yang2014planning}
\abx@aux@cite{gelfond2010causal}
\abx@aux@segm{0}{0}{gelfond2010causal}
\abx@aux@segm{0}{0}{gelfond2010causal}
\abx@aux@cite{nickles2012system}
\abx@aux@segm{0}{0}{nickles2012system}
\abx@aux@segm{0}{0}{nickles2012system}
\abx@aux@segm{0}{0}{nickles2012system}
\abx@aux@segm{0}{0}{nickles2012system}
\abx@aux@cite{erdem2013finding}
\abx@aux@segm{0}{0}{erdem2013finding}
\abx@aux@segm{0}{0}{erdem2013finding}
\@writefile{toc}{\defcounter {refsection}{0}\relax }\@writefile{toc}{\contentsline {chapter}{\numberline {3}REVIS\IeC {\~A}O BIBLIOGR\IeC {\'A}FICA}{28}{chapter.3}}
\newlabel{RevisaoBibliografica}{{\M@TitleReference {3}{REVIS\IeC {\~A}O BIBLIOGR\IeC {\'A}FICA}}{28}{REVISÃO BIBLIOGRÁFICA}{chapter.3}{}}
\abx@aux@page{112}{28}
\abx@aux@page{114}{28}
\abx@aux@page{116}{28}
\abx@aux@page{118}{28}
\abx@aux@page{120}{28}
\abx@aux@cite{rettinger2014learning}
\abx@aux@segm{0}{0}{rettinger2014learning}
\abx@aux@segm{0}{0}{rettinger2014learning}
\abx@aux@segm{0}{0}{nickles2012system}
\abx@aux@segm{0}{0}{nickles2012system}
\abx@aux@segm{0}{0}{yang2014planning}
\abx@aux@segm{0}{0}{yang2014planning}
\abx@aux@cite{khandelwal2014planning}
\abx@aux@segm{0}{0}{khandelwal2014planning}
\abx@aux@segm{0}{0}{khandelwal2014planning}
\abx@aux@segm{0}{0}{yang2014planning}
\abx@aux@segm{0}{0}{yang2014planning}
\abx@aux@cite{lee2013action}
\abx@aux@segm{0}{0}{lee2013action}
\abx@aux@cite{zhang2015mixed}
\abx@aux@segm{0}{0}{zhang2015mixed}
\abx@aux@segm{0}{0}{zhang2015mixed}
\abx@aux@segm{0}{0}{zhang2015mixed}
\abx@aux@segm{0}{0}{zhang2015mixed}
\abx@aux@cite{garnelo2016towards}
\abx@aux@segm{0}{0}{garnelo2016towards}
\abx@aux@segm{0}{0}{garnelo2016towards}
\abx@aux@page{122}{29}
\abx@aux@page{124}{29}
\abx@aux@page{126}{29}
\abx@aux@page{128}{29}
\abx@aux@page{130}{29}
\abx@aux@page{132}{29}
\abx@aux@page{133}{29}
\abx@aux@page{135}{29}
\abx@aux@page{137}{29}
\abx@aux@page{139}{29}
\abx@aux@cite{mnih2015human}
\abx@aux@segm{0}{0}{mnih2015human}
\abx@aux@segm{0}{0}{mnih2015human}
\abx@aux@cite{ZMWW17}
\abx@aux@segm{0}{0}{ZMWW17}
\abx@aux@segm{0}{0}{ZMWW17}
\abx@aux@cite{garcez2018towards}
\abx@aux@segm{0}{0}{garcez2018towards}
\abx@aux@segm{0}{0}{garcez2018towards}
\abx@aux@segm{0}{0}{garnelo2016towards}
\abx@aux@segm{0}{0}{garnelo2016towards}
\abx@aux@segm{0}{0}{garnelo2016towards}
\abx@aux@segm{0}{0}{garnelo2016towards}
\abx@aux@segm{0}{0}{garnelo2016towards}
\abx@aux@cite{yang2018peorl}
\abx@aux@segm{0}{0}{yang2018peorl}
\abx@aux@segm{0}{0}{yang2018peorl}
\abx@aux@page{141}{30}
\abx@aux@page{143}{30}
\abx@aux@page{145}{30}
\abx@aux@page{147}{30}
\abx@aux@page{149}{30}
\abx@aux@page{150}{30}
\abx@aux@page{152}{30}
\abx@aux@cite{celiberto2011using}
\abx@aux@segm{0}{0}{celiberto2011using}
\abx@aux@segm{0}{0}{celiberto2011using}
\abx@aux@cite{morozs2015heuristically}
\abx@aux@segm{0}{0}{morozs2015heuristically}
\abx@aux@segm{0}{0}{morozs2015heuristically}
\abx@aux@page{154}{31}
\abx@aux@page{156}{31}
\abx@aux@cite{zhang2017route}
\abx@aux@segm{0}{0}{zhang2017route}
\abx@aux@segm{0}{0}{zhang2017route}
\abx@aux@cite{bianchi2017heuristically}
\abx@aux@segm{0}{0}{bianchi2017heuristically}
\abx@aux@segm{0}{0}{bianchi2017heuristically}
\abx@aux@segm{0}{0}{cabalar2011formalising}
\abx@aux@segm{0}{0}{cabalar2011formalising}
\abx@aux@segm{0}{0}{cabalar2011formalising}
\abx@aux@segm{0}{0}{cabalar2011formalising}
\abx@aux@segm{0}{0}{cabalar2011formalising}
\abx@aux@segm{0}{0}{cabalar2011formalising}
\abx@aux@segm{0}{0}{cabalar2011formalising}
\abx@aux@segm{0}{0}{cabalar2011formalising}
\abx@aux@segm{0}{0}{santos2013investigation}
\abx@aux@segm{0}{0}{santos2013investigation}
\abx@aux@segm{0}{0}{santos2016framing}
\abx@aux@segm{0}{0}{santos2016framing}
\abx@aux@segm{0}{0}{santos2016framing}
\abx@aux@segm{0}{0}{santos2016framing}
\abx@aux@page{158}{32}
\abx@aux@page{160}{32}
\abx@aux@page{162}{32}
\abx@aux@page{164}{32}
\abx@aux@page{166}{32}
\abx@aux@page{168}{32}
\abx@aux@page{170}{32}
\abx@aux@page{172}{32}
\abx@aux@page{174}{32}
\abx@aux@cite{wu2016training}
\abx@aux@segm{0}{0}{wu2016training}
\abx@aux@segm{0}{0}{wu2016training}
\abx@aux@page{176}{33}
\@writefile{toc}{\defcounter {refsection}{0}\relax }\@writefile{toc}{\contentsline {chapter}{\numberline {4}PROPOSTA: \MakeLowercase  {o}ASP(MDP) PARA RESOLVER QUEBRA-CABE\IeC {\c C}AS ESPACIAIS}{34}{chapter.4}}
\newlabel{proposta}{{\M@TitleReference {4}{PROPOSTA: \MakeLowercase  {o}ASP(MDP) PARA RESOLVER QUEBRA-CABE\IeC {\c C}AS ESPACIAIS}}{34}{PROPOSTA: \texorpdfstring {\MakeLowercase {o}ASP(MDP)}) PARA RESOLVER QUEBRA-CABEÇAS ESPACIAIS}{chapter.4}{}}
\@writefile{toc}{\defcounter {refsection}{0}\relax }\@writefile{toc}{\contentsline {section}{\numberline {4.1}OBJETIVO}{34}{section.4.1}}
\@writefile{toc}{\defcounter {refsection}{0}\relax }\@writefile{toc}{\contentsline {section}{\numberline {4.2}JUSTIFICATIVA}{34}{section.4.2}}
\@writefile{toc}{\defcounter {refsection}{0}\relax }\@writefile{toc}{\contentsline {section}{\numberline {4.3}IMPLEMENTA\IeC {\c C}\IeC {\~A}O}{35}{section.4.3}}
\abx@aux@segm{0}{0}{santos2016framing}
\abx@aux@segm{0}{0}{santos2016framing}
\abx@aux@page{178}{36}
\abx@aux@segm{0}{0}{Sutton-Barto2ed}
\abx@aux@page{179}{38}
\@writefile{toc}{\defcounter {refsection}{0}\relax }\@writefile{toc}{\contentsline {chapter}{\numberline {5}EXPERIMENTOS E RESULTADOS}{39}{chapter.5}}
\newlabel{resultados}{{\M@TitleReference {5}{EXPERIMENTOS E RESULTADOS}}{39}{EXPERIMENTOS E RESULTADOS}{chapter.5}{}}
\newlabel{eq:diferencaQRMSD}{{11}{39}{EXPERIMENTOS E RESULTADOS}{equation.5.0.11}{}}
\@writefile{lof}{\defcounter {refsection}{0}\relax }\@writefile{lof}{\contentsline {figure}{\numberline {9}{\ignorespaces N\IeC {\'u}mero de passos.\relax }}{40}{figure.caption.15}}
\newlabel{NumberOfSteps}{{\M@TitleReference {9}{N\IeC {\'u}mero de passos.\relax }}{40}{Número de passos.\relax }{figure.caption.15}{}}
\@writefile{lof}{\defcounter {refsection}{0}\relax }\@writefile{lof}{\contentsline {figure}{\numberline {10}{\ignorespaces Diferen\IeC {\c c}as dos valores Q, calculado com RMSD.\relax }}{41}{figure.caption.16}}
\newlabel{RMSDValues}{{\M@TitleReference {10}{Diferen\IeC {\c c}as dos valores Q, calculado com RMSD.\relax }}{41}{Diferenças dos valores Q, calculado com RMSD.\relax }{figure.caption.16}{}}
\@writefile{toc}{\defcounter {refsection}{0}\relax }\@writefile{toc}{\contentsline {section}{\numberline {5.1}DISCUSS\IeC {\~A}O}{41}{section.5.1}}
\@writefile{lof}{\defcounter {refsection}{0}\relax }\@writefile{lof}{\contentsline {figure}{\numberline {11}{\ignorespaces Valor acumulado de retorno.\relax }}{42}{figure.caption.17}}
\newlabel{ReturnValues}{{\M@TitleReference {11}{Valor acumulado de retorno.\relax }}{42}{Valor acumulado de retorno.\relax }{figure.caption.17}{}}
\@writefile{lof}{\defcounter {refsection}{0}\relax }\@writefile{lof}{\contentsline {figure}{\numberline {12}{\ignorespaces N\IeC {\'u}mero de estados visitados.\relax }}{43}{figure.caption.18}}
\newlabel{NumberOfStates}{{\M@TitleReference {12}{N\IeC {\'u}mero de estados visitados.\relax }}{43}{Número de estados visitados.\relax }{figure.caption.18}{}}
\@writefile{lof}{\defcounter {refsection}{0}\relax }\@writefile{lof}{\contentsline {figure}{\numberline {13}{\ignorespaces N\IeC {\'u}mero de pares estado/a\IeC {\c c}\IeC {\~a}o.\relax }}{44}{figure.caption.19}}
\newlabel{NumberOfStateActionPairs}{{\M@TitleReference {13}{N\IeC {\'u}mero de pares estado/a\IeC {\c c}\IeC {\~a}o.\relax }}{44}{Número de pares estado/ação.\relax }{figure.caption.19}{}}
\abx@aux@segm{0}{0}{cabalar2011formalising}
\abx@aux@segm{0}{0}{cabalar2011formalising}
\@writefile{toc}{\defcounter {refsection}{0}\relax }\@writefile{toc}{\contentsline {chapter}{\numberline {6}PR\IeC {\'O}XIMOS PASSOS}{45}{chapter.6}}
\newlabel{Pr\IeC {\'o}ximasTarefas}{{\M@TitleReference {6}{PR\IeC {\'O}XIMOS PASSOS}}{45}{PRÓXIMOS PASSOS}{chapter.6}{}}
\@writefile{lof}{\defcounter {refsection}{0}\relax }\@writefile{lof}{\contentsline {figure}{\numberline {14}{\ignorespaces Quebra-cabe\IeC {\c c}a Rope Ladder.\relax }}{45}{figure.caption.20}}
\newlabel{ropeLadders}{{\M@TitleReference {14}{Quebra-cabe\IeC {\c c}a Rope Ladder.\relax }}{45}{Quebra-cabeça Rope Ladder.\relax }{figure.caption.20}{}}
\@writefile{toc}{\defcounter {refsection}{0}\relax }\@writefile{toc}{\contentsline {section}{\numberline {6.1}CRONOGRAMA}{46}{section.6.1}}
\@writefile{lot}{\defcounter {refsection}{0}\relax }\@writefile{lot}{\contentsline {table}{\numberline {1}{\ignorespaces Cronograma.\relax }}{46}{table.caption.21}}
\newlabel{TabelaCronograma}{{\M@TitleReference {1}{}}{46}{}{table.caption.21}{}}
\@writefile{toc}{\defcounter {refsection}{0}\relax }\@writefile{toc}{\contentsline {chapter}{\bfseries  \hspace  {4em}REFER\^ENCIAS}{47}{section*.22}}
\abx@aux@page{182}{47}
\abx@aux@page{183}{47}
\abx@aux@page{184}{47}
\abx@aux@page{185}{47}
\abx@aux@page{186}{47}
\abx@aux@page{187}{47}
\abx@aux@page{188}{47}
\abx@aux@page{189}{47}
\abx@aux@page{190}{47}
\abx@aux@page{191}{47}
\abx@aux@page{192}{47}
\abx@aux@page{193}{48}
\abx@aux@page{194}{48}
\abx@aux@page{195}{48}
\abx@aux@page{196}{48}
\abx@aux@page{197}{48}
\abx@aux@page{198}{48}
\abx@aux@page{199}{48}
\abx@aux@page{200}{48}
\abx@aux@page{201}{48}
\abx@aux@page{202}{48}
\abx@aux@page{203}{48}
\abx@aux@page{204}{48}
\abx@aux@page{205}{49}
\abx@aux@page{206}{49}
\abx@aux@page{207}{49}
\abx@aux@page{208}{49}
\abx@aux@page{209}{49}
\abx@aux@page{210}{49}
\abx@aux@page{211}{49}
\abx@aux@page{212}{49}
\abx@aux@page{213}{49}
\abx@aux@page{214}{49}
\abx@aux@page{215}{49}
\abx@aux@page{216}{49}
\abx@aux@page{217}{50}
\abx@aux@page{218}{50}
\abx@aux@page{219}{50}
\abx@aux@page{220}{50}
\abx@aux@page{221}{50}
\abx@aux@page{222}{50}
\abx@aux@page{223}{50}
\@writefile{toc}{\defcounter {refsection}{0}\relax }\@writefile{toc}{\contentsline {chapter}{\hspace  {4em}\'INDICE}{50}{section*.23}}
\abx@aux@refcontextdefaultsdone
\abx@aux@defaultrefcontext{0}{barlow1989unsupervised}{nty/global//global/global}
\abx@aux@defaultrefcontext{0}{bellman2015applied}{nty/global//global/global}
\abx@aux@defaultrefcontext{0}{bianchi2017heuristically}{nty/global//global/global}
\abx@aux@defaultrefcontext{0}{bianchiHARL2004}{nty/global//global/global}
\abx@aux@defaultrefcontext{0}{cabalar2017Aula}{nty/global//global/global}
\abx@aux@defaultrefcontext{0}{cabalar2011formalising}{nty/global//global/global}
\abx@aux@defaultrefcontext{0}{celiberto2011using}{nty/global//global/global}
\abx@aux@defaultrefcontext{0}{cohn2008qualitative}{nty/global//global/global}
\abx@aux@defaultrefcontext{0}{Dylla2017}{nty/global//global/global}
\abx@aux@defaultrefcontext{0}{eiter2009answer}{nty/global//global/global}
\abx@aux@defaultrefcontext{0}{erdem2013finding}{nty/global//global/global}
\abx@aux@defaultrefcontext{0}{ferreira2018method}{nty/global//global/global}
\abx@aux@defaultrefcontext{0}{Ferreira2017}{nty/global//global/global}
\abx@aux@defaultrefcontext{0}{garcez2018towards}{nty/global//global/global}
\abx@aux@defaultrefcontext{0}{garnelo2016towards}{nty/global//global/global}
\abx@aux@defaultrefcontext{0}{gelfond2008answer}{nty/global//global/global}
\abx@aux@defaultrefcontext{0}{gelfond1988stable}{nty/global//global/global}
\abx@aux@defaultrefcontext{0}{gelfond2010causal}{nty/global//global/global}
\abx@aux@defaultrefcontext{0}{hastie2009overview}{nty/global//global/global}
\abx@aux@defaultrefcontext{0}{Hoffman2013}{nty/global//global/global}
\abx@aux@defaultrefcontext{0}{JAIN2010651}{nty/global//global/global}
\abx@aux@defaultrefcontext{0}{Kern-Isberner2017}{nty/global//global/global}
\abx@aux@defaultrefcontext{0}{khandelwal2014planning}{nty/global//global/global}
\abx@aux@defaultrefcontext{0}{lee2013action}{nty/global//global/global}
\abx@aux@defaultrefcontext{0}{lifschitz2008answer}{nty/global//global/global}
\abx@aux@defaultrefcontext{0}{martins2013heuristically}{nty/global//global/global}
\abx@aux@defaultrefcontext{0}{mccarthy1998elaboration}{nty/global//global/global}
\abx@aux@defaultrefcontext{0}{mnih2015human}{nty/global//global/global}
\abx@aux@defaultrefcontext{0}{morozs2015heuristically}{nty/global//global/global}
\abx@aux@defaultrefcontext{0}{nickles2012system}{nty/global//global/global}
\abx@aux@defaultrefcontext{0}{rettinger2014learning}{nty/global//global/global}
\abx@aux@defaultrefcontext{0}{santos2013investigation}{nty/global//global/global}
\abx@aux@defaultrefcontext{0}{santos2016framing}{nty/global//global/global}
\abx@aux@defaultrefcontext{0}{Sutton-Barto2ed}{nty/global//global/global}
\abx@aux@defaultrefcontext{0}{van2009logic}{nty/global//global/global}
\abx@aux@defaultrefcontext{0}{walkega2017non}{nty/global//global/global}
\abx@aux@defaultrefcontext{0}{wu2016training}{nty/global//global/global}
\abx@aux@defaultrefcontext{0}{yang2018peorl}{nty/global//global/global}
\abx@aux@defaultrefcontext{0}{yang2014planning}{nty/global//global/global}
\abx@aux@defaultrefcontext{0}{ZMWW17}{nty/global//global/global}
\abx@aux@defaultrefcontext{0}{zhang2017route}{nty/global//global/global}
\abx@aux@defaultrefcontext{0}{zhang2015mixed}{nty/global//global/global}
\memsetcounter{lastsheet}{51}
\memsetcounter{lastpage}{50}
>>>>>>> Stashed changes
=======
\abx@aux@segm{0}{0}{Sutton-Barto2ed}
\abx@aux@segm{0}{0}{Sutton-Barto2ed}
\abx@aux@segm{0}{0}{Sutton-Barto2ed}
\newlabel{eq:equacaoDeTMDP}{{6}{21}{APRENDIZADO POR REFORÇO (RL)}{equation.2.3.6}{}}
\newlabel{eq:equacaoDeRMDP}{{7}{21}{APRENDIZADO POR REFORÇO (RL)}{equation.2.3.7}{}}
\abx@aux@segm{0}{0}{bianchiHARL2004}
\newlabel{eq:equacaoQLearning}{{8}{22}{APRENDIZADO POR REFORÇO (RL)}{equation.2.3.8}{}}
\newlabel{eq:actionChoiceRule}{{9}{22}{APRENDIZADO POR REFORÇO (RL)}{equation.2.3.9}{}}
\abx@aux@segm{0}{0}{ferreira2018method}
\abx@aux@cite{van2009logic}
\abx@aux@segm{0}{0}{van2009logic}
\abx@aux@cite{bellman2015applied}
\abx@aux@segm{0}{0}{bellman2015applied}
\@writefile{toc}{\defcounter {refsection}{0}\relax }\@writefile{toc}{\contentsline {section}{\numberline {2.4}ONLINE ANSWER SET PROGRAMING PARA PROCESSO DE DECIS\IeC {\~A}O DE MARKOV (\MakeLowercase  {o}ASP(MDP)}{23}{section.2.4}}
\abx@aux@segm{0}{0}{ferreira2018method}
\abx@aux@segm{0}{0}{ferreira2018method}
\newlabel{eq:formulaASPTransicaoEstados}{{10}{24}{ONLINE ANSWER SET PROGRAMING PARA PROCESSO DE DECISÃO DE MARKOV (\texorpdfstring {\MakeLowercase {o}ASP(MDP)})}{equation.2.4.10}{}}
\newlabel{alg:ifline}{{\M@TitleReference {9}{ONLINE ANSWER SET PROGRAMING PARA PROCESSO DE DECIS\IeC {\~A}O DE MARKOV (\MakeLowercase  {o}ASP(MDP)}}{25}{ONLINE ANSWER SET PROGRAMING PARA PROCESSO DE DECISÃO DE MARKOV (\texorpdfstring {\MakeLowercase {o}ASP(MDP)})}{AlgoLine.1.9}{}}
\newlabel{alg:elseline}{{\M@TitleReference {14}{ONLINE ANSWER SET PROGRAMING PARA PROCESSO DE DECIS\IeC {\~A}O DE MARKOV (\MakeLowercase  {o}ASP(MDP)}}{25}{ONLINE ANSWER SET PROGRAMING PARA PROCESSO DE DECISÃO DE MARKOV (\texorpdfstring {\MakeLowercase {o}ASP(MDP)})}{AlgoLine.1.14}{}}
\newlabel{alg:update}{{\M@TitleReference {19}{ONLINE ANSWER SET PROGRAMING PARA PROCESSO DE DECIS\IeC {\~A}O DE MARKOV (\MakeLowercase  {o}ASP(MDP)}}{25}{ONLINE ANSWER SET PROGRAMING PARA PROCESSO DE DECISÃO DE MARKOV (\texorpdfstring {\MakeLowercase {o}ASP(MDP)})}{AlgoLine.1.19}{}}
\@writefile{loa}{\defcounter {refsection}{0}\relax }\@writefile{loa}{\contentsline {algocf}{\numberline {1}{\ignorespaces Algoritmo oASP(MDP).\relax }}{25}{algocf.1}}
\newlabel{alg:oaspmdp}{{\M@TitleReference {1}{ONLINE ANSWER SET PROGRAMING PARA PROCESSO DE DECIS\IeC {\~A}O DE MARKOV (\MakeLowercase  {o}ASP(MDP)}}{25}{ONLINE ANSWER SET PROGRAMING PARA PROCESSO DE DECISÃO DE MARKOV (\texorpdfstring {\MakeLowercase {o}ASP(MDP)})}{algocf.1}{}}
\abx@aux@cite{ferreira2017method}
\abx@aux@segm{0}{0}{ferreira2017method}
\abx@aux@segm{0}{0}{ferreira2018method}
\@writefile{lof}{\defcounter {refsection}{0}\relax }\@writefile{lof}{\contentsline {figure}{\numberline {8}{\ignorespaces Mundo de Grades 2D.\relax }}{26}{figure.caption.14}}
\newlabel{MundoDeGrades}{{\M@TitleReference {8}{Mundo de Grades 2D.\relax }}{26}{Mundo de Grades 2D.\relax }{figure.caption.14}{}}
\abx@aux@segm{0}{0}{ferreira2018method}
\@writefile{toc}{\defcounter {refsection}{0}\relax }\@writefile{toc}{\contentsline {chapter}{\numberline {3}PROPOSTA}{28}{chapter.3}}
\@writefile{toc}{\defcounter {refsection}{0}\relax }\@writefile{toc}{\contentsline {section}{\numberline {3.1}OBJETIVO}{28}{section.3.1}}
\@writefile{toc}{\defcounter {refsection}{0}\relax }\@writefile{toc}{\contentsline {section}{\numberline {3.2}JUSTIFICATIVA}{28}{section.3.2}}
\abx@aux@segm{0}{0}{ferreira2018method}
\@writefile{toc}{\defcounter {refsection}{0}\relax }\@writefile{toc}{\contentsline {section}{\numberline {3.3}IMPLEMENTA\IeC {\c C}\IeC {\~A}O}{29}{section.3.3}}
\abx@aux@cite{santos2016Framing}
\abx@aux@segm{0}{0}{santos2016Framing}
\abx@aux@segm{0}{0}{santos2016framing}
\abx@aux@segm{0}{0}{santos2016Framing}
\@writefile{lof}{\defcounter {refsection}{0}\relax }\@writefile{lof}{\contentsline {figure}{\numberline {9}{\ignorespaces Representa\IeC {\c c}\IeC {\~a}o diagram\IeC {\'a}tica do quebra-cabe\IeC {\c c}a de Fisherman's Folly \cite {santos2016framing}.\relax }}{31}{figure.caption.15}}
\newlabel{DiagramaFishermansFolly}{{\M@TitleReference {9}{Representa\IeC {\c c}\IeC {\~a}o diagram\IeC {\'a}tica do quebra-cabe\IeC {\c c}a de Fisherman's Folly \cite {santos2016framing}.\relax }}{31}{Representação diagramática do quebra-cabeça de Fisherman's Folly \cite {santos2016framing}.\relax }{figure.caption.15}{}}
\abx@aux@segm{0}{0}{Sutton-Barto2ed}
\@writefile{toc}{\defcounter {refsection}{0}\relax }\@writefile{toc}{\contentsline {section}{\numberline {3.4}EXPERIMENTOS E RESULTADOS}{32}{section.3.4}}
\newlabel{resultados}{{\M@TitleReference {3.4}{EXPERIMENTOS E RESULTADOS}}{32}{EXPERIMENTOS E RESULTADOS}{section.3.4}{}}
\@writefile{lof}{\defcounter {refsection}{0}\relax }\@writefile{lof}{\contentsline {figure}{\numberline {10}{\ignorespaces N\IeC {\'u}mero de passos.\relax }}{33}{figure.caption.16}}
\newlabel{NumberOfSteps}{{\M@TitleReference {10}{N\IeC {\'u}mero de passos.\relax }}{33}{Número de passos.\relax }{figure.caption.16}{}}
\@writefile{lof}{\defcounter {refsection}{0}\relax }\@writefile{lof}{\contentsline {figure}{\numberline {11}{\ignorespaces Diferen\IeC {\c c}as dos valores Q, calculado com RMSD.\relax }}{34}{figure.caption.17}}
\newlabel{RMSDValues}{{\M@TitleReference {11}{Diferen\IeC {\c c}as dos valores Q, calculado com RMSD.\relax }}{34}{Diferenças dos valores Q, calculado com RMSD.\relax }{figure.caption.17}{}}
\@writefile{lof}{\defcounter {refsection}{0}\relax }\@writefile{lof}{\contentsline {figure}{\numberline {12}{\ignorespaces Valor acumulado de retorno.\relax }}{35}{figure.caption.18}}
\newlabel{ReturnValues}{{\M@TitleReference {12}{Valor acumulado de retorno.\relax }}{35}{Valor acumulado de retorno.\relax }{figure.caption.18}{}}
\@writefile{lof}{\defcounter {refsection}{0}\relax }\@writefile{lof}{\contentsline {figure}{\numberline {13}{\ignorespaces N\IeC {\'u}mero de estados visitados.\relax }}{36}{figure.caption.19}}
\newlabel{NumberOfStates}{{\M@TitleReference {13}{N\IeC {\'u}mero de estados visitados.\relax }}{36}{Número de estados visitados.\relax }{figure.caption.19}{}}
\@writefile{lof}{\defcounter {refsection}{0}\relax }\@writefile{lof}{\contentsline {figure}{\numberline {14}{\ignorespaces N\IeC {\'u}mero de pares estado/a\IeC {\c c}\IeC {\~a}o.\relax }}{37}{figure.caption.20}}
\newlabel{NumberOfStateActionPairs}{{\M@TitleReference {14}{N\IeC {\'u}mero de pares estado/a\IeC {\c c}\IeC {\~a}o.\relax }}{37}{Número de pares estado/ação.\relax }{figure.caption.20}{}}
\abx@aux@segm{0}{0}{van2009logic}
\abx@aux@cite{yang2014planning}
\abx@aux@segm{0}{0}{yang2014planning}
\abx@aux@cite{gelfond2010causal}
\abx@aux@segm{0}{0}{gelfond2010causal}
\abx@aux@cite{nickles2012system}
\abx@aux@segm{0}{0}{nickles2012system}
\abx@aux@segm{0}{0}{nickles2012system}
\abx@aux@cite{erdem2013finding}
\abx@aux@segm{0}{0}{erdem2013finding}
\@writefile{toc}{\defcounter {refsection}{0}\relax }\@writefile{toc}{\contentsline {chapter}{\numberline {4}REVIS\IeC {\~A}O BIBLIOGR\IeC {\'A}FICA}{38}{chapter.4}}
\abx@aux@cite{rettinger2014learning}
\abx@aux@segm{0}{0}{rettinger2014learning}
\abx@aux@segm{0}{0}{nickles2012system}
\abx@aux@segm{0}{0}{yang2014planning}
\abx@aux@cite{khandelwal2014planning}
\abx@aux@segm{0}{0}{khandelwal2014planning}
\abx@aux@segm{0}{0}{yang2014planning}
\abx@aux@cite{zhang2015mixed}
\abx@aux@segm{0}{0}{zhang2015mixed}
\abx@aux@segm{0}{0}{zhang2015mixed}
\abx@aux@cite{garnelo2016towards}
\abx@aux@segm{0}{0}{garnelo2016towards}
\abx@aux@cite{mnih2015human}
\abx@aux@segm{0}{0}{mnih2015human}
\abx@aux@cite{dutra2017comparison}
\abx@aux@segm{0}{0}{dutra2017comparison}
\abx@aux@cite{ZMWW17}
\abx@aux@segm{0}{0}{ZMWW17}
\abx@aux@cite{garcez2018towards}
\abx@aux@segm{0}{0}{garcez2018towards}
\abx@aux@segm{0}{0}{garnelo2016towards}
\abx@aux@cite{yang2018peorl}
\abx@aux@segm{0}{0}{yang2018peorl}
\abx@aux@segm{0}{0}{bianchiHARL2004}
\abx@aux@cite{celiberto2011using}
\abx@aux@segm{0}{0}{celiberto2011using}
\abx@aux@cite{martins2013heuristically}
\abx@aux@segm{0}{0}{martins2013heuristically}
\abx@aux@cite{morozs2015heuristically}
\abx@aux@segm{0}{0}{morozs2015heuristically}
\abx@aux@cite{zhang2017route}
\abx@aux@segm{0}{0}{zhang2017route}
\abx@aux@cite{bianchi2017heuristically}
\abx@aux@segm{0}{0}{bianchi2017heuristically}
\abx@aux@segm{0}{0}{cabalar2011formalising}
\abx@aux@cite{cabalar2006strings}
\abx@aux@segm{0}{0}{cabalar2006strings}
\abx@aux@cite{santos2007holes}
\abx@aux@segm{0}{0}{santos2007holes}
\abx@aux@segm{0}{0}{cabalar2011formalising}
\abx@aux@segm{0}{0}{cabalar2011formalising}
\abx@aux@segm{0}{0}{cabalar2011formalising}
\abx@aux@segm{0}{0}{santos2013investigation}
\abx@aux@segm{0}{0}{santos2016framing}
\abx@aux@segm{0}{0}{santos2016framing}
\abx@aux@cite{wu2016training}
\abx@aux@segm{0}{0}{wu2016training}
\abx@aux@segm{0}{0}{cabalar2011formalising}
\@writefile{toc}{\defcounter {refsection}{0}\relax }\@writefile{toc}{\contentsline {chapter}{\numberline {5}PR\IeC {\'O}XIMOS PASSOS}{44}{chapter.5}}
\newlabel{Pr\IeC {\'o}ximasTarefas}{{\M@TitleReference {5}{PR\IeC {\'O}XIMOS PASSOS}}{44}{PRÓXIMOS PASSOS}{chapter.5}{}}
\@writefile{lof}{\defcounter {refsection}{0}\relax }\@writefile{lof}{\contentsline {figure}{\numberline {15}{\ignorespaces Quebra-cabe\IeC {\c c}a Rope Ladders.\relax }}{44}{figure.caption.21}}
\newlabel{ropeLadders}{{\M@TitleReference {15}{Quebra-cabe\IeC {\c c}a Rope Ladders.\relax }}{44}{Quebra-cabeça Rope Ladders.\relax }{figure.caption.21}{}}
\@writefile{toc}{\defcounter {refsection}{0}\relax }\@writefile{toc}{\contentsline {section}{\numberline {5.1}CRONOGRAMA}{44}{section.5.1}}
\memsetcounter{lastsheet}{45}
\memsetcounter{lastpage}{44}
>>>>>>> Stashed changes
\providecommand\@xdylanguage[2]{}
\@xdylanguage{acronym}{brazil}
\providecommand\@gls@codepage[2]{}
\@gls@codepage{acronym}{utf8}
\providecommand\@xdylanguage[2]{}
\@xdylanguage{symbols}{brazil}
\providecommand\@gls@codepage[2]{}
\@gls@codepage{symbols}{utf8}
