<<<<<<< Updated upstream
\select@language {brazil}
\boolfalse {citerequest}\boolfalse {citetracker}\boolfalse {pagetracker}\boolfalse {backtracker}\relax
\defcounter {refsection}{0}\relax
\select@language {brazil}
=======
\babel@toc {brazil}{}
\boolfalse {citerequest}\boolfalse {citetracker}\boolfalse {pagetracker}\boolfalse {backtracker}\relax
\babel@toc {brazil}{}
>>>>>>> Stashed changes
\defcounter {refsection}{0}\relax
\contentsline {chapter}{\numberline {1}INTRODU\IeC {\c C}\IeC {\~A}O}{8}{chapter.1}
\defcounter {refsection}{0}\relax
\contentsline {chapter}{\numberline {2}REVIS\IeC {\~A}O TE\IeC {\'O}RICA}{12}{chapter.2}
\defcounter {refsection}{0}\relax
\contentsline {section}{\numberline {2.1}O DOM\IeC {\'I}NIO}{12}{section.2.1}
\defcounter {refsection}{0}\relax
<<<<<<< Updated upstream
<<<<<<< Updated upstream
=======
>>>>>>> Stashed changes
\contentsline {section}{\numberline {2.2}ANSWER SET PROGRAMING (ASP)}{14}{section.2.2}
\defcounter {refsection}{0}\relax
\contentsline {section}{\numberline {2.3}APRENDIZADO POR REFOR\IeC {\c C}O (RL)}{18}{section.2.3}
\defcounter {refsection}{0}\relax
\contentsline {section}{\numberline {2.4}ONLINE ANSWER SET PROGRAMING PARA PROCESSO DE DECIS\IeC {\~A}O DE MARKOV (\MakeLowercase {o}ASP(MDP)}{23}{section.2.4}
\defcounter {refsection}{0}\relax
\contentsline {chapter}{\numberline {3}PROPOSTA}{28}{chapter.3}
\defcounter {refsection}{0}\relax
\contentsline {section}{\numberline {3.1}OBJETIVO}{28}{section.3.1}
\defcounter {refsection}{0}\relax
\contentsline {section}{\numberline {3.2}JUSTIFICATIVA}{28}{section.3.2}
\defcounter {refsection}{0}\relax
\contentsline {section}{\numberline {3.3}IMPLEMENTA\IeC {\c C}\IeC {\~A}O}{29}{section.3.3}
\defcounter {refsection}{0}\relax
\contentsline {section}{\numberline {3.4}EXPERIMENTOS E RESULTADOS}{32}{section.3.4}
\defcounter {refsection}{0}\relax
<<<<<<< Updated upstream
\contentsline {chapter}{\numberline {4}REVIS\IeC {\~A}O BIBLIOGR\IeC {\'A}FICA}{39}{chapter.4}
\defcounter {refsection}{0}\relax
\contentsline {chapter}{\numberline {5}PR\IeC {\'O}XIMOS PASSOS}{45}{chapter.5}
\defcounter {refsection}{0}\relax
\contentsline {section}{\numberline {5.1}CRONOGRAMA}{45}{section.5.1}
=======
\contentsline {section}{\numberline {2.2}ANSWER SET PROGRAMING (ASP)}{15}{section.2.2}
\defcounter {refsection}{0}\relax
\contentsline {section}{\numberline {2.3}APRENDIZADO POR REFOR\IeC {\c C}O (RL)}{18}{section.2.3}
\defcounter {refsection}{0}\relax
\contentsline {section}{\numberline {2.4}ONLINE ANSWER SET PROGRAMING PARA PROCESSO DE DECIS\IeC {\~A}O DE MARKOV (\MakeLowercase {o}ASP(MDP))}{23}{section.2.4}
\defcounter {refsection}{0}\relax
\contentsline {chapter}{\numberline {3}REVIS\IeC {\~A}O BIBLIOGR\IeC {\'A}FICA}{28}{chapter.3}
\defcounter {refsection}{0}\relax
\contentsline {chapter}{\numberline {4}PROPOSTA: \MakeLowercase {o}ASP(MDP) PARA RESOLVER QUEBRA-CABE\IeC {\c C}AS ESPACIAIS}{34}{chapter.4}
\defcounter {refsection}{0}\relax
\contentsline {section}{\numberline {4.1}OBJETIVO}{34}{section.4.1}
\defcounter {refsection}{0}\relax
\contentsline {section}{\numberline {4.2}JUSTIFICATIVA}{34}{section.4.2}
\defcounter {refsection}{0}\relax
\contentsline {section}{\numberline {4.3}IMPLEMENTA\IeC {\c C}\IeC {\~A}O}{35}{section.4.3}
\defcounter {refsection}{0}\relax
\contentsline {chapter}{\numberline {5}EXPERIMENTOS E RESULTADOS}{39}{chapter.5}
\defcounter {refsection}{0}\relax
\contentsline {section}{\numberline {5.1}DISCUSS\IeC {\~A}O}{41}{section.5.1}
\defcounter {refsection}{0}\relax
\contentsline {chapter}{\numberline {6}PR\IeC {\'O}XIMOS PASSOS}{45}{chapter.6}
\defcounter {refsection}{0}\relax
\contentsline {section}{\numberline {6.1}CRONOGRAMA}{46}{section.6.1}
\defcounter {refsection}{0}\relax
\contentsline {chapter}{\bfseries \hspace {4em}REFER\^ENCIAS}{47}{section*.22}
\defcounter {refsection}{0}\relax
\contentsline {chapter}{\hspace {4em}\'INDICE}{50}{section*.23}
>>>>>>> Stashed changes
=======
\contentsline {chapter}{\numberline {4}REVIS\IeC {\~A}O BIBLIOGR\IeC {\'A}FICA}{38}{chapter.4}
\defcounter {refsection}{0}\relax
\contentsline {chapter}{\numberline {5}PR\IeC {\'O}XIMOS PASSOS}{44}{chapter.5}
\defcounter {refsection}{0}\relax
\contentsline {section}{\numberline {5.1}CRONOGRAMA}{44}{section.5.1}
>>>>>>> Stashed changes
