% $ biblatex auxiliary file $
% $ biblatex bbl format version 2.9 $
% Do not modify the above lines!
%
% This is an auxiliary file used by the 'biblatex' package.
% This file may safely be deleted. It will be recreated by
% biber as required.
%
\begingroup
\makeatletter
\@ifundefined{ver@biblatex.sty}
  {\@latex@error
     {Missing 'biblatex' package}
     {The bibliography requires the 'biblatex' package.}
      \aftergroup\endinput}
  {}
\endgroup


\refsection{0}
  \datalist[entry]{nty/global//global/global}
    \entry{barlow1989unsupervised}{article}{}
      \name{author}{1}{}{%
        {{uniquename=0,uniquepart=base,hash=1a733b33ba4521792f7ddb120baee25f}{%
           family={Barlow},
           familyi={B\bibinitperiod},
           given={Horace\bibnamedelima B},
           giveni={H\bibinitperiod\bibinitdelim B\bibinitperiod},
           givenun=0}}%
      }
      \list{publisher}{1}{%
        {MIT Press}%
      }
      \strng{namehash}{1a733b33ba4521792f7ddb120baee25f}
      \strng{fullhash}{1a733b33ba4521792f7ddb120baee25f}
      \strng{bibnamehash}{1a733b33ba4521792f7ddb120baee25f}
      \strng{authorbibnamehash}{1a733b33ba4521792f7ddb120baee25f}
      \strng{authornamehash}{1a733b33ba4521792f7ddb120baee25f}
      \strng{authorfullhash}{1a733b33ba4521792f7ddb120baee25f}
      \field{sortinit}{B}
      \field{sortinithash}{276475738cc058478c1677046f857703}
      \field{extradatescope}{labelyear}
      \field{labeldatesource}{year}
      \field{labelnamesource}{author}
      \field{labeltitlesource}{title}
      \field{journaltitle}{Neural computation}
      \field{number}{3}
      \field{title}{Unsupervised learning}
      \field{volume}{1}
      \field{year}{1989}
      \field{pages}{295\bibrangedash 311}
      \range{pages}{17}
    \endentry
    \entry{bellman2015applied}{book}{}
      \name{author}{2}{}{%
        {{uniquename=0,uniquepart=base,hash=7ab1889a1b4a0f4e6986a0a7078fb7e5}{%
           family={Bellman},
           familyi={B\bibinitperiod},
           given={Richard\bibnamedelima E},
           giveni={R\bibinitperiod\bibinitdelim E\bibinitperiod},
           givenun=0}}%
        {{uniquename=0,uniquepart=base,hash=e27597cebcced1e4619a531515094047}{%
           family={Dreyfus},
           familyi={D\bibinitperiod},
           given={Stuart\bibnamedelima E},
           giveni={S\bibinitperiod\bibinitdelim E\bibinitperiod},
           givenun=0}}%
      }
      \list{publisher}{1}{%
        {Princeton university press}%
      }
      \strng{namehash}{b31a29f80bae29168c5d92c2dc38465f}
      \strng{fullhash}{b31a29f80bae29168c5d92c2dc38465f}
      \strng{bibnamehash}{b31a29f80bae29168c5d92c2dc38465f}
      \strng{authorbibnamehash}{b31a29f80bae29168c5d92c2dc38465f}
      \strng{authornamehash}{b31a29f80bae29168c5d92c2dc38465f}
      \strng{authorfullhash}{b31a29f80bae29168c5d92c2dc38465f}
      \field{sortinit}{B}
      \field{sortinithash}{276475738cc058478c1677046f857703}
      \field{extradatescope}{labelyear}
      \field{labeldatesource}{year}
      \field{labelnamesource}{author}
      \field{labeltitlesource}{title}
      \field{title}{Applied dynamic programming}
      \field{year}{2015}
    \endentry
    \entry{bianchi2017heuristically}{article}{}
      \name{author}{5}{}{%
        {{uniquename=1,uniquepart=given,hash=6567c15a270e21b2d8b1ffebd3909661}{%
           family={Bianchi},
           familyi={B\bibinitperiod},
           given={Reinaldo\bibnamedelima AC},
           giveni={R\bibinitperiod\bibinitdelim A\bibinitperiod},
           givenun=1}}%
        {{uniquename=0,uniquepart=base,hash=41237ea8bf7ae0fe78282923689404d4}{%
           family={Santos},
           familyi={S\bibinitperiod},
           given={Paulo\bibnamedelima E},
           giveni={P\bibinitperiod\bibinitdelim E\bibinitperiod},
           givenun=0}}%
        {{uniquename=0,uniquepart=base,hash=d31c4c56d5c15da7e7732e29c15195fb}{%
           family={Silva},
           familyi={S\bibinitperiod},
           given={Isaac\bibnamedelima J},
           giveni={I\bibinitperiod\bibinitdelim J\bibinitperiod},
           givenun=0,
           prefix={da},
           prefixi={d\bibinitperiod},
           prefixun=0}}%
        {{uniquename=0,uniquepart=base,hash=1646d5f4f770220b71b5a921d933e81e}{%
           family={Celiberto},
           familyi={C\bibinitperiod},
           given={Luiz\bibnamedelima A},
           giveni={L\bibinitperiod\bibinitdelim A\bibinitperiod},
           givenun=0}}%
        {{uniquename=0,uniquepart=base,hash=aac1b681fb2224430dce407ca5c8ef88}{%
           family={Mantaras},
           familyi={M\bibinitperiod},
           given={Ramon\bibnamedelima Lopez},
           giveni={R\bibinitperiod\bibinitdelim L\bibinitperiod},
           givenun=0,
           prefix={de},
           prefixi={d\bibinitperiod},
           prefixun=0}}%
      }
      \list{publisher}{1}{%
        {Springer}%
      }
      \strng{namehash}{158d8c87babeb525b2d710792d365943}
      \strng{fullhash}{ac9f5c6970fabaa735d848b3bdc619f5}
      \strng{bibnamehash}{158d8c87babeb525b2d710792d365943}
      \strng{authorbibnamehash}{158d8c87babeb525b2d710792d365943}
      \strng{authornamehash}{158d8c87babeb525b2d710792d365943}
      \strng{authorfullhash}{ac9f5c6970fabaa735d848b3bdc619f5}
      \field{sortinit}{B}
      \field{sortinithash}{276475738cc058478c1677046f857703}
      \field{extradatescope}{labelyear}
      \field{labeldatesource}{year}
      \field{labelnamesource}{author}
      \field{labeltitlesource}{title}
      \field{journaltitle}{Journal of Intelligent \& Robotic Systems}
      \field{title}{Heuristically Accelerated Reinforcement Learning by Means of Case-Based Reasoning and Transfer Learning}
      \field{year}{2017}
      \field{pages}{1\bibrangedash 12}
      \range{pages}{12}
    \endentry
    \entry{bianchiHARL2004}{inproceedings}{}
      \name{author}{3}{}{%
        {{uniquename=1,uniquepart=given,hash=efa58c3f90e1f1908e055c90c3543eab}{%
           family={Bianchi},
           familyi={B\bibinitperiod},
           given={Reinaldo},
           giveni={R\bibinitperiod},
           givenun=1}}%
        {{uniquename=0,uniquepart=base,hash=09c719ddbea22520ec3fa8c4d57fe19e}{%
           family={Ribeiro},
           familyi={R\bibinitperiod},
           given={Carlos},
           giveni={C\bibinitperiod},
           givenun=0}}%
        {{uniquename=0,uniquepart=base,hash=529f2f5e1ac02ebb2878e1453771e449}{%
           family={Costa},
           familyi={C\bibinitperiod},
           given={Anna},
           giveni={A\bibinitperiod},
           givenun=0}}%
      }
      \name{editor}{2}{}{%
        {{hash=f912f577e342f96ffcffa98fcd32f94d}{%
           family={Bazzan},
           familyi={B\bibinitperiod},
           given={Ana\bibnamedelimb L.\bibnamedelimi C.},
           giveni={A\bibinitperiod\bibinitdelim L\bibinitperiod\bibinitdelim C\bibinitperiod}}}%
        {{hash=bfcb711b14c7fa489ea32ecddfb459b3}{%
           family={Labidi},
           familyi={L\bibinitperiod},
           given={Sofiane},
           giveni={S\bibinitperiod}}}%
      }
      \list{location}{1}{%
        {Berlin, Heidelberg}%
      }
      \list{publisher}{1}{%
        {Springer Berlin Heidelberg}%
      }
      \strng{namehash}{d57ee279a9bc3cba49ac3df68c08336a}
      \strng{fullhash}{d57ee279a9bc3cba49ac3df68c08336a}
      \strng{bibnamehash}{d57ee279a9bc3cba49ac3df68c08336a}
      \strng{authorbibnamehash}{d57ee279a9bc3cba49ac3df68c08336a}
      \strng{authornamehash}{d57ee279a9bc3cba49ac3df68c08336a}
      \strng{authorfullhash}{d57ee279a9bc3cba49ac3df68c08336a}
      \strng{editorbibnamehash}{6768a11367246576e3cdb392900b51d3}
      \strng{editornamehash}{6768a11367246576e3cdb392900b51d3}
      \strng{editorfullhash}{6768a11367246576e3cdb392900b51d3}
      \field{sortinit}{B}
      \field{sortinithash}{276475738cc058478c1677046f857703}
      \field{extradatescope}{labelyear}
      \field{labeldatesource}{year}
      \field{labelnamesource}{author}
      \field{labeltitlesource}{title}
      \field{abstract}{This work presents a new algorithm, called Heuristically Accelerated Q-Learning (HAQL), that allows the use of heuristics to speed up the well-known Reinforcement Learning algorithm Q--learning. A heuristic function {\$}{\backslash}mathcal{\{}H{\}}{\$} that influences the choice of the actions characterizes the HAQL algorithm. The heuristic function is strongly associated with the policy: it indicates that an action must be taken instead of another. This work also proposes an automatic method for the extraction of the heuristic function {\$}{\backslash}mathcal{\{}H{\}}{\$} from the learning process, called Heuristic from Exploration. Finally, experimental results shows that even a very simple heuristic results in a significant enhancement of performance of the reinforcement learning algorithm.}
      \field{booktitle}{Advances in Artificial Intelligence -- SBIA 2004}
      \field{isbn}{978-3-540-28645-5}
      \field{title}{Heuristically Accelerated Q-Learning: A New Approach to Speed Up Reinforcement Learning}
      \field{year}{2004}
      \field{pages}{245\bibrangedash 254}
      \range{pages}{10}
    \endentry
    \entry{cabalar2017Aula}{article}{}
      \name{author}{1}{}{%
        {{uniquename=0,uniquepart=base,hash=b59172f317efae10fd52883aad3f170a}{%
           family={Cabalar},
           familyi={C\bibinitperiod},
           given={Pedro},
           giveni={P\bibinitperiod},
           givenun=0}}%
      }
      \list{publisher}{1}{%
        {Corunna University}%
      }
      \strng{namehash}{b59172f317efae10fd52883aad3f170a}
      \strng{fullhash}{b59172f317efae10fd52883aad3f170a}
      \strng{bibnamehash}{b59172f317efae10fd52883aad3f170a}
      \strng{authorbibnamehash}{b59172f317efae10fd52883aad3f170a}
      \strng{authornamehash}{b59172f317efae10fd52883aad3f170a}
      \strng{authorfullhash}{b59172f317efae10fd52883aad3f170a}
      \field{sortinit}{C}
      \field{sortinithash}{963e9d84a3da2344e8833203de5aed05}
      \field{extradatescope}{labelyear}
      \field{labeldatesource}{year}
      \field{labelnamesource}{author}
      \field{labeltitlesource}{title}
      \field{title}{Notas de Aula}
      \field{year}{2017}
    \endentry
    \entry{cabalar2011formalising}{article}{}
      \name{author}{2}{}{%
        {{uniquename=0,uniquepart=base,hash=b59172f317efae10fd52883aad3f170a}{%
           family={Cabalar},
           familyi={C\bibinitperiod},
           given={Pedro},
           giveni={P\bibinitperiod},
           givenun=0}}%
        {{uniquename=0,uniquepart=base,hash=41237ea8bf7ae0fe78282923689404d4}{%
           family={Santos},
           familyi={S\bibinitperiod},
           given={Paulo\bibnamedelima E},
           giveni={P\bibinitperiod\bibinitdelim E\bibinitperiod},
           givenun=0}}%
      }
      \list{publisher}{1}{%
        {Elsevier}%
      }
      \strng{namehash}{2c845cf4c8586fb4940f9055c25d6e09}
      \strng{fullhash}{2c845cf4c8586fb4940f9055c25d6e09}
      \strng{bibnamehash}{2c845cf4c8586fb4940f9055c25d6e09}
      \strng{authorbibnamehash}{2c845cf4c8586fb4940f9055c25d6e09}
      \strng{authornamehash}{2c845cf4c8586fb4940f9055c25d6e09}
      \strng{authorfullhash}{2c845cf4c8586fb4940f9055c25d6e09}
      \field{sortinit}{C}
      \field{sortinithash}{963e9d84a3da2344e8833203de5aed05}
      \field{extradatescope}{labelyear}
      \field{labeldatesource}{year}
      \field{labelnamesource}{author}
      \field{labeltitlesource}{title}
      \field{journaltitle}{Artificial Intelligence}
      \field{number}{1}
      \field{title}{Formalising the Fisherman's Folly puzzle}
      \field{volume}{175}
      \field{year}{2011}
      \field{pages}{346\bibrangedash 377}
      \range{pages}{32}
    \endentry
    \entry{celiberto2011using}{inproceedings}{}
      \name{author}{4}{}{%
        {{uniquename=0,uniquepart=base,hash=17b068ea5bb74dc07ebe696b83008cd1}{%
           family={Celiberto\bibnamedelima Jr},
           familyi={C\bibinitperiod\bibinitdelim J\bibinitperiod},
           given={Luiz\bibnamedelima A},
           giveni={L\bibinitperiod\bibinitdelim A\bibinitperiod},
           givenun=0}}%
        {{uniquename=0,uniquepart=base,hash=1ea0c33a0d544d7613541d8d4c900839}{%
           family={Matsuura},
           familyi={M\bibinitperiod},
           given={Jackson\bibnamedelima P},
           giveni={J\bibinitperiod\bibinitdelim P\bibinitperiod},
           givenun=0}}%
        {{uniquename=0,uniquepart=base,hash=bc5f8a21c3fcd5f520c6e6502101528f}{%
           family={De\bibnamedelima Mantaras},
           familyi={D\bibinitperiod\bibinitdelim M\bibinitperiod},
           given={Ramon\bibnamedelima Lopez},
           giveni={R\bibinitperiod\bibinitdelim L\bibinitperiod},
           givenun=0}}%
        {{uniquename=0,uniquepart=base,hash=6567c15a270e21b2d8b1ffebd3909661}{%
           family={Bianchi},
           familyi={B\bibinitperiod},
           given={Reinaldo\bibnamedelima AC},
           giveni={R\bibinitperiod\bibinitdelim A\bibinitperiod},
           givenun=0}}%
      }
      \strng{namehash}{a8427c24cc39882aaeb3964b46e01fc1}
      \strng{fullhash}{d0b3d5098c850acde1aee6d96488df5d}
      \strng{bibnamehash}{a8427c24cc39882aaeb3964b46e01fc1}
      \strng{authorbibnamehash}{a8427c24cc39882aaeb3964b46e01fc1}
      \strng{authornamehash}{a8427c24cc39882aaeb3964b46e01fc1}
      \strng{authorfullhash}{d0b3d5098c850acde1aee6d96488df5d}
      \field{sortinit}{C}
      \field{sortinithash}{963e9d84a3da2344e8833203de5aed05}
      \field{extradatescope}{labelyear}
      \field{labeldatesource}{year}
      \field{labelnamesource}{author}
      \field{labeltitlesource}{title}
      \field{booktitle}{IJCAI Proceedings-International Joint Conference on Artificial Intelligence}
      \field{number}{1}
      \field{title}{Using cases as heuristics in reinforcement learning: a transfer learning application}
      \field{volume}{22}
      \field{year}{2011}
      \field{pages}{1211}
      \range{pages}{1}
    \endentry
    \entry{cohn2008qualitative}{article}{}
      \name{author}{2}{}{%
        {{uniquename=0,uniquepart=base,hash=4923f5c3f92f575622b2e7e0a6de6614}{%
           family={Cohn},
           familyi={C\bibinitperiod},
           given={Anthony\bibnamedelima G},
           giveni={A\bibinitperiod\bibinitdelim G\bibinitperiod},
           givenun=0}}%
        {{uniquename=0,uniquepart=base,hash=3db061d86e567feb6063de01ecb1acde}{%
           family={Renz},
           familyi={R\bibinitperiod},
           given={Jochen},
           giveni={J\bibinitperiod},
           givenun=0}}%
      }
      \list{publisher}{1}{%
        {Elsevier}%
      }
      \strng{namehash}{b456906ea23b51a4aae6898c656d9e4a}
      \strng{fullhash}{b456906ea23b51a4aae6898c656d9e4a}
      \strng{bibnamehash}{b456906ea23b51a4aae6898c656d9e4a}
      \strng{authorbibnamehash}{b456906ea23b51a4aae6898c656d9e4a}
      \strng{authornamehash}{b456906ea23b51a4aae6898c656d9e4a}
      \strng{authorfullhash}{b456906ea23b51a4aae6898c656d9e4a}
      \field{sortinit}{C}
      \field{sortinithash}{963e9d84a3da2344e8833203de5aed05}
      \field{extradatescope}{labelyear}
      \field{labeldatesource}{year}
      \field{labelnamesource}{author}
      \field{labeltitlesource}{title}
      \field{journaltitle}{Foundations of Artificial Intelligence}
      \field{title}{Qualitative spatial representation and reasoning}
      \field{volume}{3}
      \field{year}{2008}
      \field{pages}{551\bibrangedash 596}
      \range{pages}{46}
    \endentry
    \entry{Dylla2017}{article}{}
      \name{author}{7}{}{%
        {{uniquename=0,uniquepart=base,hash=f6b344129b6cf2ab9b9b8e059cc31a9d}{%
           family={Dylla},
           familyi={D\bibinitperiod},
           given={Frank},
           giveni={F\bibinitperiod},
           givenun=0}}%
        {{uniquename=0,uniquepart=base,hash=cea7d43198e289a2a86ee494b7a1484d}{%
           family={Lee},
           familyi={L\bibinitperiod},
           given={Jae\bibnamedelima Hee},
           giveni={J\bibinitperiod\bibinitdelim H\bibinitperiod},
           givenun=0}}%
        {{uniquename=0,uniquepart=base,hash=641146c1f6d934106d0fdbe5e089cc12}{%
           family={Mossakowski},
           familyi={M\bibinitperiod},
           given={Till},
           giveni={T\bibinitperiod},
           givenun=0}}%
        {{uniquename=0,uniquepart=base,hash=5d62da517b335078f08436fbab3a5f69}{%
           family={Schneider},
           familyi={S\bibinitperiod},
           given={Thomas},
           giveni={T\bibinitperiod},
           givenun=0}}%
        {{uniquename=0,uniquepart=base,hash=b04cb408a2d78ec46f2dbe399edd4156}{%
           family={Delden},
           familyi={D\bibinitperiod},
           given={Andr{\'{e}}\bibnamedelima Van},
           giveni={A\bibinitperiod\bibinitdelim V\bibinitperiod},
           givenun=0}}%
        {{uniquename=0,uniquepart=base,hash=cf72a45fcaf0624d20f90556004df3b1}{%
           family={Ven},
           familyi={V\bibinitperiod},
           given={Jasper\bibnamedelimb Van\bibnamedelima De},
           giveni={J\bibinitperiod\bibinitdelim V\bibinitperiod\bibinitdelim D\bibinitperiod},
           givenun=0}}%
        {{uniquename=0,uniquepart=base,hash=a4aecc7c8ee8daf4e96153f269b9135a}{%
           family={Wolter},
           familyi={W\bibinitperiod},
           given={Diedrich},
           giveni={D\bibinitperiod},
           givenun=0}}%
      }
      \list{location}{1}{%
        {New York, NY, USA}%
      }
      \list{publisher}{1}{%
        {ACM}%
      }
      \strng{namehash}{70931a857b687f3784b19852b67b7bdf}
      \strng{fullhash}{265953c4f851c59a277e1761eaa4db43}
      \strng{bibnamehash}{70931a857b687f3784b19852b67b7bdf}
      \strng{authorbibnamehash}{70931a857b687f3784b19852b67b7bdf}
      \strng{authornamehash}{70931a857b687f3784b19852b67b7bdf}
      \strng{authorfullhash}{265953c4f851c59a277e1761eaa4db43}
      \field{sortinit}{D}
      \field{sortinithash}{2ef1bd9a78cc71eb74d7231c635177b8}
      \field{extradatescope}{labelyear}
      \field{labeldatesource}{year}
      \field{labelnamesource}{author}
      \field{labeltitlesource}{title}
      \field{issn}{0360-0300}
      \field{journaltitle}{ACM Comput. Surv.}
      \field{month}{4}
      \field{number}{1}
      \field{title}{A Survey of Qualitative Spatial and Temporal Calculi: Algebraic and Computational Properties}
      \field{volume}{50}
      \field{year}{2017}
      \field{pages}{7:1\bibrangedash 7:39}
      \range{pages}{-1}
      \verb{doi}
      \verb 10.1145/3038927
      \endverb
      \verb{urlraw}
      \verb http://doi.acm.org/10.1145/3038927
      \endverb
      \verb{url}
      \verb http://doi.acm.org/10.1145/3038927
      \endverb
      \keyw{Qualitative reasoning,knowledge representation,relation algebra}
    \endentry
    \entry{eiter2009answer}{incollection}{}
      \name{author}{3}{}{%
        {{uniquename=0,uniquepart=base,hash=afcea6fea5dffb083d7000f489d2a314}{%
           family={Eiter},
           familyi={E\bibinitperiod},
           given={Thomas},
           giveni={T\bibinitperiod},
           givenun=0}}%
        {{uniquename=0,uniquepart=base,hash=b2685c3a4bfe04504965af8f9931bc38}{%
           family={Ianni},
           familyi={I\bibinitperiod},
           given={Giovambattista},
           giveni={G\bibinitperiod},
           givenun=0}}%
        {{uniquename=0,uniquepart=base,hash=a2dcd09387a6a4dcce9091a37aa63477}{%
           family={Krennwallner},
           familyi={K\bibinitperiod},
           given={Thomas},
           giveni={T\bibinitperiod},
           givenun=0}}%
      }
      \list{publisher}{1}{%
        {Springer}%
      }
      \strng{namehash}{4a0580e482fba5c7ba8475f2aef8140a}
      \strng{fullhash}{4a0580e482fba5c7ba8475f2aef8140a}
      \strng{bibnamehash}{4a0580e482fba5c7ba8475f2aef8140a}
      \strng{authorbibnamehash}{4a0580e482fba5c7ba8475f2aef8140a}
      \strng{authornamehash}{4a0580e482fba5c7ba8475f2aef8140a}
      \strng{authorfullhash}{4a0580e482fba5c7ba8475f2aef8140a}
      \field{sortinit}{E}
      \field{sortinithash}{f615fb9c6fba11c6f962fb3fd599810e}
      \field{extradatescope}{labelyear}
      \field{labeldatesource}{year}
      \field{labelnamesource}{author}
      \field{labeltitlesource}{title}
      \field{booktitle}{Reasoning Web. Semantic Technologies for Information Systems}
      \field{title}{Answer set programming: A primer}
      \field{year}{2009}
      \field{pages}{40\bibrangedash 110}
      \range{pages}{71}
    \endentry
    \entry{erdem2013finding}{article}{}
      \name{author}{5}{}{%
        {{uniquename=0,uniquepart=base,hash=ecf699cfbaab8e7b87f4ccb5657a6c3e}{%
           family={Erdem},
           familyi={E\bibinitperiod},
           given={Esra},
           giveni={E\bibinitperiod},
           givenun=0}}%
        {{uniquename=0,uniquepart=base,hash=af66d81b9423721eacf3e4b9606b5f36}{%
           family={Patoglu},
           familyi={P\bibinitperiod},
           given={Volkan},
           giveni={V\bibinitperiod},
           givenun=0}}%
        {{uniquename=0,uniquepart=base,hash=1774d1b58cec68a5ddff2e2e6dd99a6b}{%
           family={Saribatur},
           familyi={S\bibinitperiod},
           given={Zeynep\bibnamedelima G},
           giveni={Z\bibinitperiod\bibinitdelim G\bibinitperiod},
           givenun=0}}%
        {{uniquename=0,uniquepart=base,hash=73feda85a1c167669f5f42fc75265ed7}{%
           family={Sch{\"{u}}ller},
           familyi={S\bibinitperiod},
           given={Peter},
           giveni={P\bibinitperiod},
           givenun=0}}%
        {{uniquename=0,uniquepart=base,hash=bda2b6adf33d4743302cd42c9a7e6659}{%
           family={Uras},
           familyi={U\bibinitperiod},
           given={Tansel},
           giveni={T\bibinitperiod},
           givenun=0}}%
      }
      \list{publisher}{1}{%
        {Cambridge University Press}%
      }
      \strng{namehash}{443da8ee4261fe26712a51ca4833dd1a}
      \strng{fullhash}{2f552d50d55fee50fd9f11e42d96d18f}
      \strng{bibnamehash}{443da8ee4261fe26712a51ca4833dd1a}
      \strng{authorbibnamehash}{443da8ee4261fe26712a51ca4833dd1a}
      \strng{authornamehash}{443da8ee4261fe26712a51ca4833dd1a}
      \strng{authorfullhash}{2f552d50d55fee50fd9f11e42d96d18f}
      \field{sortinit}{E}
      \field{sortinithash}{f615fb9c6fba11c6f962fb3fd599810e}
      \field{extradatescope}{labelyear}
      \field{labeldatesource}{year}
      \field{labelnamesource}{author}
      \field{labeltitlesource}{title}
      \field{journaltitle}{Theory and Practice of Logic Programming}
      \field{number}{4-5}
      \field{title}{Finding optimal plans for multiple teams of robots through a mediator: A logic-based approach}
      \field{volume}{13}
      \field{year}{2013}
      \field{pages}{831\bibrangedash 846}
      \range{pages}{16}
    \endentry
    \entry{ferreira2018method}{article}{}
      \name{author}{4}{}{%
        {{uniquename=0,uniquepart=base,hash=cd8d20951ea2005a951c5c80bec620b6}{%
           family={Ferreira},
           familyi={F\bibinitperiod},
           given={Leonardo\bibnamedelima A.},
           giveni={L\bibinitperiod\bibinitdelim A\bibinitperiod},
           givenun=0}}%
        {{uniquename=0,uniquepart=base,hash=4e869d97e7fde791b96e2a4e80379e1d}{%
           family={C.\bibnamedelimi Bianchi},
           familyi={C\bibinitperiod\bibinitdelim B\bibinitperiod},
           given={Reinaldo\bibnamedelima A.},
           giveni={R\bibinitperiod\bibinitdelim A\bibinitperiod},
           givenun=0}}%
        {{uniquename=0,uniquepart=base,hash=13cac26ef908abd4969e523c516693cf}{%
           family={Santos},
           familyi={S\bibinitperiod},
           given={Paulo\bibnamedelima E.},
           giveni={P\bibinitperiod\bibinitdelim E\bibinitperiod},
           givenun=0}}%
        {{uniquename=0,uniquepart=base,hash=aac1b681fb2224430dce407ca5c8ef88}{%
           family={Mantaras},
           familyi={M\bibinitperiod},
           given={Ramon\bibnamedelima Lopez},
           giveni={R\bibinitperiod\bibinitdelim L\bibinitperiod},
           givenun=0,
           prefix={de},
           prefixi={d\bibinitperiod},
           prefixun=0}}%
      }
      \list{publisher}{1}{%
        {Springer International Publishing AG, Cham}%
      }
      \strng{namehash}{8fb0374eb52c18ab9bea6034bf958cba}
      \strng{fullhash}{837e2b4c35d2adae5d7c4629f4f65249}
      \strng{bibnamehash}{8fb0374eb52c18ab9bea6034bf958cba}
      \strng{authorbibnamehash}{8fb0374eb52c18ab9bea6034bf958cba}
      \strng{authornamehash}{8fb0374eb52c18ab9bea6034bf958cba}
      \strng{authorfullhash}{837e2b4c35d2adae5d7c4629f4f65249}
      \field{sortinit}{F}
      \field{sortinithash}{669c706c6f1fbf3b5a83d26f1d9e9e72}
      \field{extradatescope}{labelyear}
      \field{labeldatesource}{year}
      \field{labelnamesource}{author}
      \field{labeltitlesource}{title}
      \field{booktitle}{The 31st International Conference on Industrial, Engineering & Other Applications of Applied Intelligent Systems}
      \field{title}{A method for the online construction of the set of states of a Markov Decision Process using Answer Set Programming}
      \field{year}{2018}
    \endentry
    \entry{Ferreira2017}{article}{}
      \name{author}{4}{}{%
        {{uniquename=0,uniquepart=base,hash=cd8d20951ea2005a951c5c80bec620b6}{%
           family={Ferreira},
           familyi={F\bibinitperiod},
           given={Leonardo\bibnamedelima A.},
           giveni={L\bibinitperiod\bibinitdelim A\bibinitperiod},
           givenun=0}}%
        {{uniquename=0,uniquepart=base,hash=4e869d97e7fde791b96e2a4e80379e1d}{%
           family={C.\bibnamedelimi Bianchi},
           familyi={C\bibinitperiod\bibinitdelim B\bibinitperiod},
           given={Reinaldo\bibnamedelima A.},
           giveni={R\bibinitperiod\bibinitdelim A\bibinitperiod},
           givenun=0}}%
        {{uniquename=0,uniquepart=base,hash=13cac26ef908abd4969e523c516693cf}{%
           family={Santos},
           familyi={S\bibinitperiod},
           given={Paulo\bibnamedelima E.},
           giveni={P\bibinitperiod\bibinitdelim E\bibinitperiod},
           givenun=0}}%
        {{uniquename=0,uniquepart=base,hash=aac1b681fb2224430dce407ca5c8ef88}{%
           family={Mantaras},
           familyi={M\bibinitperiod},
           given={Ramon\bibnamedelima Lopez},
           giveni={R\bibinitperiod\bibinitdelim L\bibinitperiod},
           givenun=0,
           prefix={de},
           prefixi={d\bibinitperiod},
           prefixun=0}}%
      }
      \strng{namehash}{8fb0374eb52c18ab9bea6034bf958cba}
      \strng{fullhash}{837e2b4c35d2adae5d7c4629f4f65249}
      \strng{bibnamehash}{8fb0374eb52c18ab9bea6034bf958cba}
      \strng{authorbibnamehash}{8fb0374eb52c18ab9bea6034bf958cba}
      \strng{authornamehash}{8fb0374eb52c18ab9bea6034bf958cba}
      \strng{authorfullhash}{837e2b4c35d2adae5d7c4629f4f65249}
      \field{sortinit}{F}
      \field{sortinithash}{669c706c6f1fbf3b5a83d26f1d9e9e72}
      \field{extradatescope}{labelyear}
      \field{labeldatesource}{year}
      \field{labelnamesource}{author}
      \field{labeltitlesource}{title}
      \field{issn}{1573-7497}
      \field{journaltitle}{Applied Intelligence}
      \field{month}{12}
      \field{number}{4}
      \field{title}{Answer set programming for non-stationary Markov decision processes}
      \field{volume}{47}
      \field{year}{2017}
      \field{pages}{993\bibrangedash 1007}
      \range{pages}{15}
      \verb{doi}
      \verb 10.1007/s10489-017-0988-y
      \endverb
      \verb{urlraw}
      \verb https://doi.org/10.1007/s10489-017-0988-y
      \endverb
      \verb{url}
      \verb https://doi.org/10.1007/s10489-017-0988-y
      \endverb
    \endentry
    \entry{garcez2018towards}{article}{}
      \name{author}{3}{}{%
        {{uniquename=0,uniquepart=base,hash=a3fb0523e1f11d8d41962361aa5401f2}{%
           family={Garcez},
           familyi={G\bibinitperiod},
           given={Artur},
           giveni={A\bibinitperiod},
           givenun=0}}%
        {{uniquename=0,uniquepart=base,hash=27ed6fdbc2501e8b17e159692dc17af5}{%
           family={Dutra},
           familyi={D\bibinitperiod},
           given={Aimorei},
           giveni={A\bibinitperiod},
           givenun=0}}%
        {{uniquename=0,uniquepart=base,hash=323111175d843c8c67f0a5e46230e164}{%
           family={Alonso},
           familyi={A\bibinitperiod},
           given={Eduardo},
           giveni={E\bibinitperiod},
           givenun=0}}%
      }
      \strng{namehash}{68729f2902e7ff7663b00dc652c5812a}
      \strng{fullhash}{68729f2902e7ff7663b00dc652c5812a}
      \strng{bibnamehash}{68729f2902e7ff7663b00dc652c5812a}
      \strng{authorbibnamehash}{68729f2902e7ff7663b00dc652c5812a}
      \strng{authornamehash}{68729f2902e7ff7663b00dc652c5812a}
      \strng{authorfullhash}{68729f2902e7ff7663b00dc652c5812a}
      \field{sortinit}{G}
      \field{sortinithash}{5e8d2bf9d38de41b1528bd307546008f}
      \field{extradatescope}{labelyear}
      \field{labeldatesource}{year}
      \field{labelnamesource}{author}
      \field{labeltitlesource}{title}
      \field{journaltitle}{arXiv preprint arXiv:1804.08597}
      \field{title}{Towards Symbolic Reinforcement Learning with Common Sense}
      \field{year}{2018}
    \endentry
    \entry{garnelo2016towards}{article}{}
      \name{author}{3}{}{%
        {{uniquename=0,uniquepart=base,hash=0cdb8985c82d4beb394733ad29ad7813}{%
           family={Garnelo},
           familyi={G\bibinitperiod},
           given={Marta},
           giveni={M\bibinitperiod},
           givenun=0}}%
        {{uniquename=0,uniquepart=base,hash=eca38a4081d81852b36ec45aaa371607}{%
           family={Arulkumaran},
           familyi={A\bibinitperiod},
           given={Kai},
           giveni={K\bibinitperiod},
           givenun=0}}%
        {{uniquename=0,uniquepart=base,hash=9c9a18dc9378af37452e312a622cd2ed}{%
           family={Shanahan},
           familyi={S\bibinitperiod},
           given={Murray},
           giveni={M\bibinitperiod},
           givenun=0}}%
      }
      \strng{namehash}{9c211319d640858d4a8e8319cda30c4b}
      \strng{fullhash}{9c211319d640858d4a8e8319cda30c4b}
      \strng{bibnamehash}{9c211319d640858d4a8e8319cda30c4b}
      \strng{authorbibnamehash}{9c211319d640858d4a8e8319cda30c4b}
      \strng{authornamehash}{9c211319d640858d4a8e8319cda30c4b}
      \strng{authorfullhash}{9c211319d640858d4a8e8319cda30c4b}
      \field{sortinit}{G}
      \field{sortinithash}{5e8d2bf9d38de41b1528bd307546008f}
      \field{extradatescope}{labelyear}
      \field{labeldatesource}{year}
      \field{labelnamesource}{author}
      \field{labeltitlesource}{title}
      \field{journaltitle}{arXiv preprint arXiv:1609.05518}
      \field{title}{Towards deep symbolic reinforcement learning}
      \field{year}{2016}
    \endentry
    \entry{gelfond2008answer}{article}{}
      \name{author}{1}{}{%
        {{uniquename=0,uniquepart=base,hash=9ddf8a4d782a7a6f34c25fbc4ca822b1}{%
           family={Gelfond},
           familyi={G\bibinitperiod},
           given={Michael},
           giveni={M\bibinitperiod},
           givenun=0}}%
      }
      \list{publisher}{1}{%
        {Elsevier}%
      }
      \strng{namehash}{9ddf8a4d782a7a6f34c25fbc4ca822b1}
      \strng{fullhash}{9ddf8a4d782a7a6f34c25fbc4ca822b1}
      \strng{bibnamehash}{9ddf8a4d782a7a6f34c25fbc4ca822b1}
      \strng{authorbibnamehash}{9ddf8a4d782a7a6f34c25fbc4ca822b1}
      \strng{authornamehash}{9ddf8a4d782a7a6f34c25fbc4ca822b1}
      \strng{authorfullhash}{9ddf8a4d782a7a6f34c25fbc4ca822b1}
      \field{sortinit}{G}
      \field{sortinithash}{5e8d2bf9d38de41b1528bd307546008f}
      \field{extradatescope}{labelyear}
      \field{labeldatesource}{year}
      \field{labelnamesource}{author}
      \field{labeltitlesource}{title}
      \field{journaltitle}{Foundations of Artificial Intelligence}
      \field{title}{Answer sets}
      \field{volume}{3}
      \field{year}{2008}
      \field{pages}{285\bibrangedash 316}
      \range{pages}{32}
    \endentry
    \entry{gelfond1988stable}{inproceedings}{}
      \name{author}{2}{}{%
        {{uniquename=0,uniquepart=base,hash=9ddf8a4d782a7a6f34c25fbc4ca822b1}{%
           family={Gelfond},
           familyi={G\bibinitperiod},
           given={Michael},
           giveni={M\bibinitperiod},
           givenun=0}}%
        {{uniquename=0,uniquepart=base,hash=3f9f7c9937297077325233d345cf9c91}{%
           family={Lifschitz},
           familyi={L\bibinitperiod},
           given={Vladimir},
           giveni={V\bibinitperiod},
           givenun=0}}%
      }
      \strng{namehash}{701aac313c79e95b5099346df9bba24a}
      \strng{fullhash}{701aac313c79e95b5099346df9bba24a}
      \strng{bibnamehash}{701aac313c79e95b5099346df9bba24a}
      \strng{authorbibnamehash}{701aac313c79e95b5099346df9bba24a}
      \strng{authornamehash}{701aac313c79e95b5099346df9bba24a}
      \strng{authorfullhash}{701aac313c79e95b5099346df9bba24a}
      \field{sortinit}{G}
      \field{sortinithash}{5e8d2bf9d38de41b1528bd307546008f}
      \field{extradatescope}{labelyear}
      \field{labeldatesource}{year}
      \field{labelnamesource}{author}
      \field{labeltitlesource}{title}
      \field{booktitle}{ICLP/SLP}
      \field{title}{The stable model semantics for logic programming.}
      \field{volume}{88}
      \field{year}{1988}
      \field{pages}{1070\bibrangedash 1080}
      \range{pages}{11}
    \endentry
    \entry{gelfond2010causal}{article}{}
      \name{author}{2}{}{%
        {{uniquename=0,uniquepart=base,hash=9ddf8a4d782a7a6f34c25fbc4ca822b1}{%
           family={Gelfond},
           familyi={G\bibinitperiod},
           given={Michael},
           giveni={M\bibinitperiod},
           givenun=0}}%
        {{uniquename=0,uniquepart=base,hash=226d456b40a5f6c60de5e19d2193b47e}{%
           family={Rushton},
           familyi={R\bibinitperiod},
           given={Nelson},
           giveni={N\bibinitperiod},
           givenun=0}}%
      }
      \strng{namehash}{89e0d956fe4ce111a85f0fa01d54f1f0}
      \strng{fullhash}{89e0d956fe4ce111a85f0fa01d54f1f0}
      \strng{bibnamehash}{89e0d956fe4ce111a85f0fa01d54f1f0}
      \strng{authorbibnamehash}{89e0d956fe4ce111a85f0fa01d54f1f0}
      \strng{authornamehash}{89e0d956fe4ce111a85f0fa01d54f1f0}
      \strng{authorfullhash}{89e0d956fe4ce111a85f0fa01d54f1f0}
      \field{sortinit}{G}
      \field{sortinithash}{5e8d2bf9d38de41b1528bd307546008f}
      \field{extradatescope}{labelyear}
      \field{labeldatesource}{year}
      \field{labelnamesource}{author}
      \field{labeltitlesource}{title}
      \field{journaltitle}{Heuristics, Probabilities and Causality. A tribute to Judea Pearl}
      \field{title}{Causal and probabilistic reasoning in p-log}
      \field{year}{2010}
      \field{pages}{337\bibrangedash 359}
      \range{pages}{23}
    \endentry
    \entry{hastie2009overview}{incollection}{}
      \name{author}{3}{}{%
        {{uniquename=0,uniquepart=base,hash=0cb8fe4210baa81c4b0e67913b4d2768}{%
           family={Hastie},
           familyi={H\bibinitperiod},
           given={Trevor},
           giveni={T\bibinitperiod},
           givenun=0}}%
        {{uniquename=0,uniquepart=base,hash=88eea600247d798f8b2ce0b2dc614492}{%
           family={Tibshirani},
           familyi={T\bibinitperiod},
           given={Robert},
           giveni={R\bibinitperiod},
           givenun=0}}%
        {{uniquename=0,uniquepart=base,hash=971cf69058b64a94326dea0f2a8bbcce}{%
           family={Friedman},
           familyi={F\bibinitperiod},
           given={Jerome},
           giveni={J\bibinitperiod},
           givenun=0}}%
      }
      \list{publisher}{1}{%
        {Springer}%
      }
      \strng{namehash}{7ca1bfe876d5e037b6aed69704221267}
      \strng{fullhash}{7ca1bfe876d5e037b6aed69704221267}
      \strng{bibnamehash}{7ca1bfe876d5e037b6aed69704221267}
      \strng{authorbibnamehash}{7ca1bfe876d5e037b6aed69704221267}
      \strng{authornamehash}{7ca1bfe876d5e037b6aed69704221267}
      \strng{authorfullhash}{7ca1bfe876d5e037b6aed69704221267}
      \field{sortinit}{H}
      \field{sortinithash}{5f15a7bc777ad49ff15aa4d2831b1681}
      \field{extradatescope}{labelyear}
      \field{labeldatesource}{year}
      \field{labelnamesource}{author}
      \field{labeltitlesource}{title}
      \field{booktitle}{The elements of statistical learning}
      \field{title}{Overview of supervised learning}
      \field{year}{2009}
      \field{pages}{9\bibrangedash 41}
      \range{pages}{33}
    \endentry
    \entry{Hoffman2013}{inbook}{}
      \name{author}{3}{}{%
        {{uniquename=0,uniquepart=base,hash=fb2ef4c96bcf52431a53617a779c7c53}{%
           family={Hoffman},
           familyi={H\bibinitperiod},
           given={Karla\bibnamedelima L.},
           giveni={K\bibinitperiod\bibinitdelim L\bibinitperiod},
           givenun=0}}%
        {{uniquename=0,uniquepart=base,hash=4db2830aa621cdff298e583771f03042}{%
           family={Padberg},
           familyi={P\bibinitperiod},
           given={Manfred},
           giveni={M\bibinitperiod},
           givenun=0}}%
        {{uniquename=0,uniquepart=base,hash=e8401634f5e7a6782d15bb5bb9f8206b}{%
           family={Rinaldi},
           familyi={R\bibinitperiod},
           given={Giovanni},
           giveni={G\bibinitperiod},
           givenun=0}}%
      }
      \list{location}{1}{%
        {Boston, MA}%
      }
      \list{publisher}{1}{%
        {Springer US}%
      }
      \strng{namehash}{923bfa8888ed289f1dab2305ea492569}
      \strng{fullhash}{923bfa8888ed289f1dab2305ea492569}
      \strng{bibnamehash}{923bfa8888ed289f1dab2305ea492569}
      \strng{authorbibnamehash}{923bfa8888ed289f1dab2305ea492569}
      \strng{authornamehash}{923bfa8888ed289f1dab2305ea492569}
      \strng{authorfullhash}{923bfa8888ed289f1dab2305ea492569}
      \field{sortinit}{H}
      \field{sortinithash}{5f15a7bc777ad49ff15aa4d2831b1681}
      \field{extradatescope}{labelyear}
      \field{labeldatesource}{year}
      \field{labelnamesource}{author}
      \field{labeltitlesource}{title}
      \field{booktitle}{Encyclopedia of Operations Research and Management Science}
      \field{title}{Traveling Salesman Problem}
      \field{year}{2013}
      \field{pages}{1573\bibrangedash 1578}
      \range{pages}{6}
    \endentry
    \entry{JAIN2010651}{article}{}
      \name{author}{1}{}{%
        {{uniquename=0,uniquepart=base,hash=6b1865b7308dc926bbc8a8d0c55e76e2}{%
           family={Jain},
           familyi={J\bibinitperiod},
           given={Anil\bibnamedelima K.},
           giveni={A\bibinitperiod\bibinitdelim K\bibinitperiod},
           givenun=0}}%
      }
      \strng{namehash}{6b1865b7308dc926bbc8a8d0c55e76e2}
      \strng{fullhash}{6b1865b7308dc926bbc8a8d0c55e76e2}
      \strng{bibnamehash}{6b1865b7308dc926bbc8a8d0c55e76e2}
      \strng{authorbibnamehash}{6b1865b7308dc926bbc8a8d0c55e76e2}
      \strng{authornamehash}{6b1865b7308dc926bbc8a8d0c55e76e2}
      \strng{authorfullhash}{6b1865b7308dc926bbc8a8d0c55e76e2}
      \field{sortinit}{J}
      \field{sortinithash}{fce5f8d0bd05e8d93f3dbe21c78897ca}
      \field{extradatescope}{labelyear}
      \field{labeldatesource}{year}
      \field{labelnamesource}{author}
      \field{labeltitlesource}{title}
      \field{issn}{0167-8655}
      \field{journaltitle}{Pattern Recognition Letters}
      \field{note}{Award winning papers from the 19th International Conference on Pattern Recognition (ICPR)}
      \field{number}{8}
      \field{title}{Data clustering: 50 years beyond K-means}
      \field{volume}{31}
      \field{year}{2010}
      \field{pages}{651\bibrangedash 666}
      \range{pages}{16}
      \verb{doi}
      \verb https://doi.org/10.1016/j.patrec.2009.09.011
      \endverb
      \verb{urlraw}
      \verb http://www.sciencedirect.com/science/article/pii/S0167865509002323
      \endverb
      \verb{url}
      \verb http://www.sciencedirect.com/science/article/pii/S0167865509002323
      \endverb
      \keyw{Data clustering,User\textquoteright{}s dilemma,Historical developments,Perspectives on clustering,King-Sun Fu prize}
    \endentry
    \entry{Kern-Isberner2017}{article}{}
      \name{author}{2}{}{%
        {{uniquename=0,uniquepart=base,hash=b5f0dce410b6e04b9df5880cf0643c20}{%
           family={Kern-Isberner},
           familyi={K\bibinithyphendelim I\bibinitperiod},
           given={Gabriele},
           giveni={G\bibinitperiod},
           givenun=0}}%
        {{uniquename=0,uniquepart=base,hash=b1a2f24812f2f716eb7865fa724e74b1}{%
           family={Lukasiewicz},
           familyi={L\bibinitperiod},
           given={Thomas},
           giveni={T\bibinitperiod},
           givenun=0}}%
      }
      \strng{namehash}{ff13bd12a20fb046b9ed7370938518e3}
      \strng{fullhash}{ff13bd12a20fb046b9ed7370938518e3}
      \strng{bibnamehash}{ff13bd12a20fb046b9ed7370938518e3}
      \strng{authorbibnamehash}{ff13bd12a20fb046b9ed7370938518e3}
      \strng{authornamehash}{ff13bd12a20fb046b9ed7370938518e3}
      \strng{authorfullhash}{ff13bd12a20fb046b9ed7370938518e3}
      \field{sortinit}{K}
      \field{sortinithash}{9fd838a31ba64d981e8f44562bd33f89}
      \field{extradatescope}{labelyear}
      \field{labeldatesource}{year}
      \field{labelnamesource}{author}
      \field{labeltitlesource}{title}
      \field{abstract}{In this paper, we give an introduction to reasoning under uncertainty, inconsistency, vagueness, and preferences in artificial intelligence (AI), including some historic notes and a brief survey to previous approaches.}
      \field{issn}{1610-1987}
      \field{journaltitle}{KI - K{\"{u}}nstliche Intelligenz}
      \field{month}{3}
      \field{number}{1}
      \field{title}{Many Facets of Reasoning Under Uncertainty, Inconsistency, Vagueness, and Preferences: A Brief Survey}
      \field{volume}{31}
      \field{year}{2017}
      \field{pages}{9\bibrangedash 13}
      \range{pages}{5}
      \verb{doi}
      \verb 10.1007/s13218-016-0480-6
      \endverb
      \verb{urlraw}
      \verb https://doi.org/10.1007/s13218-016-0480-6
      \endverb
      \verb{url}
      \verb https://doi.org/10.1007/s13218-016-0480-6
      \endverb
    \endentry
    \entry{khandelwal2014planning}{inproceedings}{}
      \name{author}{5}{}{%
        {{uniquename=0,uniquepart=base,hash=ba53c526b1a2fc53b09537b9a89bda3c}{%
           family={Khandelwal},
           familyi={K\bibinitperiod},
           given={Piyush},
           giveni={P\bibinitperiod},
           givenun=0}}%
        {{uniquename=0,uniquepart=base,hash=c6f8ea716203e2815920b7ed0b761ec5}{%
           family={Yang},
           familyi={Y\bibinitperiod},
           given={Fangkai},
           giveni={F\bibinitperiod},
           givenun=0}}%
        {{uniquename=0,uniquepart=base,hash=eead72a78c4d6007343bdccf41058394}{%
           family={Leonetti},
           familyi={L\bibinitperiod},
           given={Matteo},
           giveni={M\bibinitperiod},
           givenun=0}}%
        {{uniquename=0,uniquepart=base,hash=3f9f7c9937297077325233d345cf9c91}{%
           family={Lifschitz},
           familyi={L\bibinitperiod},
           given={Vladimir},
           giveni={V\bibinitperiod},
           givenun=0}}%
        {{uniquename=0,uniquepart=base,hash=3f42a499da2cddc0bae71b76c81f7c46}{%
           family={Stone},
           familyi={S\bibinitperiod},
           given={Peter},
           giveni={P\bibinitperiod},
           givenun=0}}%
      }
      \strng{namehash}{05f9646fe5424d903d260815d71f4289}
      \strng{fullhash}{1785dd0d9649ec489511c68d3bcdc5fc}
      \strng{bibnamehash}{05f9646fe5424d903d260815d71f4289}
      \strng{authorbibnamehash}{05f9646fe5424d903d260815d71f4289}
      \strng{authornamehash}{05f9646fe5424d903d260815d71f4289}
      \strng{authorfullhash}{1785dd0d9649ec489511c68d3bcdc5fc}
      \field{sortinit}{K}
      \field{sortinithash}{9fd838a31ba64d981e8f44562bd33f89}
      \field{extradatescope}{labelyear}
      \field{labeldatesource}{year}
      \field{labelnamesource}{author}
      \field{labeltitlesource}{title}
      \field{booktitle}{ICAPS}
      \field{title}{Planning in Action Language BC while Learning Action Costs for Mobile Robots.}
      \field{year}{2014}
    \endentry
    \entry{lee2013action}{inproceedings}{}
      \name{author}{3}{}{%
        {{uniquename=0,uniquepart=base,hash=61a8c8f9bc9bd96451ef58478d081e18}{%
           family={Lee},
           familyi={L\bibinitperiod},
           given={Joohyung},
           giveni={J\bibinitperiod},
           givenun=0}}%
        {{uniquename=0,uniquepart=base,hash=3f9f7c9937297077325233d345cf9c91}{%
           family={Lifschitz},
           familyi={L\bibinitperiod},
           given={Vladimir},
           giveni={V\bibinitperiod},
           givenun=0}}%
        {{uniquename=0,uniquepart=base,hash=c6f8ea716203e2815920b7ed0b761ec5}{%
           family={Yang},
           familyi={Y\bibinitperiod},
           given={Fangkai},
           giveni={F\bibinitperiod},
           givenun=0}}%
      }
      \strng{namehash}{339c6b45f44537c41482918b8884b03a}
      \strng{fullhash}{339c6b45f44537c41482918b8884b03a}
      \strng{bibnamehash}{339c6b45f44537c41482918b8884b03a}
      \strng{authorbibnamehash}{339c6b45f44537c41482918b8884b03a}
      \strng{authornamehash}{339c6b45f44537c41482918b8884b03a}
      \strng{authorfullhash}{339c6b45f44537c41482918b8884b03a}
      \field{sortinit}{L}
      \field{sortinithash}{2c7981aaabc885868aba60f0c09ee20f}
      \field{extradatescope}{labelyear}
      \field{labeldatesource}{year}
      \field{labelnamesource}{author}
      \field{labeltitlesource}{title}
      \field{booktitle}{IJCAI}
      \field{title}{Action Language BC: Preliminary Report.}
      \field{year}{2013}
      \field{pages}{983\bibrangedash 989}
      \range{pages}{7}
    \endentry
    \entry{lifschitz2008answer}{inproceedings}{}
      \name{author}{1}{}{%
        {{uniquename=0,uniquepart=base,hash=3f9f7c9937297077325233d345cf9c91}{%
           family={Lifschitz},
           familyi={L\bibinitperiod},
           given={Vladimir},
           giveni={V\bibinitperiod},
           givenun=0}}%
      }
      \strng{namehash}{3f9f7c9937297077325233d345cf9c91}
      \strng{fullhash}{3f9f7c9937297077325233d345cf9c91}
      \strng{bibnamehash}{3f9f7c9937297077325233d345cf9c91}
      \strng{authorbibnamehash}{3f9f7c9937297077325233d345cf9c91}
      \strng{authornamehash}{3f9f7c9937297077325233d345cf9c91}
      \strng{authorfullhash}{3f9f7c9937297077325233d345cf9c91}
      \field{sortinit}{L}
      \field{sortinithash}{2c7981aaabc885868aba60f0c09ee20f}
      \field{extradatescope}{labelyear}
      \field{labeldatesource}{year}
      \field{labelnamesource}{author}
      \field{labeltitlesource}{title}
      \field{booktitle}{AAAI}
      \field{number}{2008}
      \field{title}{What Is Answer Set Programming?.}
      \field{volume}{8}
      \field{year}{2008}
      \field{pages}{1594\bibrangedash 1597}
      \range{pages}{4}
    \endentry
    \entry{mccarthy1998elaboration}{inproceedings}{}
      \name{author}{1}{}{%
        {{uniquename=0,uniquepart=base,hash=627c3779677d0eaf3312e5b67e8cbe0c}{%
           family={McCarthy},
           familyi={M\bibinitperiod},
           given={John},
           giveni={J\bibinitperiod},
           givenun=0}}%
      }
      \strng{namehash}{627c3779677d0eaf3312e5b67e8cbe0c}
      \strng{fullhash}{627c3779677d0eaf3312e5b67e8cbe0c}
      \strng{bibnamehash}{627c3779677d0eaf3312e5b67e8cbe0c}
      \strng{authorbibnamehash}{627c3779677d0eaf3312e5b67e8cbe0c}
      \strng{authornamehash}{627c3779677d0eaf3312e5b67e8cbe0c}
      \strng{authorfullhash}{627c3779677d0eaf3312e5b67e8cbe0c}
      \field{sortinit}{M}
      \field{sortinithash}{cfd219b90152c06204fab207bc6c7cab}
      \field{extradatescope}{labelyear}
      \field{labeldatesource}{year}
      \field{labelnamesource}{author}
      \field{labeltitlesource}{title}
      \field{booktitle}{Common Sense}
      \field{title}{Elaboration tolerance}
      \field{volume}{98}
      \field{year}{1998}
    \endentry
    \entry{mnih2015human}{article}{}
      \true{moreauthor}
      \true{morelabelname}
      \name{author}{10}{}{%
        {{uniquename=0,uniquepart=base,hash=f7d23cfe4ca0e6bf7a8c251bfa78aca6}{%
           family={Mnih},
           familyi={M\bibinitperiod},
           given={Volodymyr},
           giveni={V\bibinitperiod},
           givenun=0}}%
        {{uniquename=0,uniquepart=base,hash=481308b301166b521c74fde6566e97e6}{%
           family={Kavukcuoglu},
           familyi={K\bibinitperiod},
           given={Koray},
           giveni={K\bibinitperiod},
           givenun=0}}%
        {{uniquename=0,uniquepart=base,hash=89dbd30410c2085cd059f32c57d4593e}{%
           family={Silver},
           familyi={S\bibinitperiod},
           given={David},
           giveni={D\bibinitperiod},
           givenun=0}}%
        {{uniquename=0,uniquepart=base,hash=62191eed252a4c8f2bc3d880a63f1712}{%
           family={Rusu},
           familyi={R\bibinitperiod},
           given={Andrei\bibnamedelima A},
           giveni={A\bibinitperiod\bibinitdelim A\bibinitperiod},
           givenun=0}}%
        {{uniquename=0,uniquepart=base,hash=1cbd91f7404b2298b46bb46c47c08251}{%
           family={Veness},
           familyi={V\bibinitperiod},
           given={Joel},
           giveni={J\bibinitperiod},
           givenun=0}}%
        {{uniquename=0,uniquepart=base,hash=d1467e2d5c6a6ff7e0a4d8f46ad874b5}{%
           family={Bellemare},
           familyi={B\bibinitperiod},
           given={Marc\bibnamedelima G},
           giveni={M\bibinitperiod\bibinitdelim G\bibinitperiod},
           givenun=0}}%
        {{uniquename=0,uniquepart=base,hash=dfca94b0427da7f9088af596e23b46c0}{%
           family={Graves},
           familyi={G\bibinitperiod},
           given={Alex},
           giveni={A\bibinitperiod},
           givenun=0}}%
        {{uniquename=0,uniquepart=base,hash=9449802bcb467309c0ebced658096818}{%
           family={Riedmiller},
           familyi={R\bibinitperiod},
           given={Martin},
           giveni={M\bibinitperiod},
           givenun=0}}%
        {{uniquename=0,uniquepart=base,hash=f0f71c46b6baf5e6cdacfd777c6a0ef2}{%
           family={Fidjeland},
           familyi={F\bibinitperiod},
           given={Andreas\bibnamedelima K},
           giveni={A\bibinitperiod\bibinitdelim K\bibinitperiod},
           givenun=0}}%
        {{uniquename=0,uniquepart=base,hash=46cc21fb5dec973c05ceb0f321e02ca0}{%
           family={Ostrovski},
           familyi={O\bibinitperiod},
           given={Georg},
           giveni={G\bibinitperiod},
           givenun=0}}%
      }
      \list{publisher}{1}{%
        {Nature Research}%
      }
      \strng{namehash}{aff24b211b34cdd515b2fd148ce0c920}
      \strng{fullhash}{b4d8967962c1870255ace7db9ddb8906}
      \strng{bibnamehash}{aff24b211b34cdd515b2fd148ce0c920}
      \strng{authorbibnamehash}{aff24b211b34cdd515b2fd148ce0c920}
      \strng{authornamehash}{aff24b211b34cdd515b2fd148ce0c920}
      \strng{authorfullhash}{b4d8967962c1870255ace7db9ddb8906}
      \field{sortinit}{M}
      \field{sortinithash}{cfd219b90152c06204fab207bc6c7cab}
      \field{extradatescope}{labelyear}
      \field{labeldatesource}{year}
      \field{labelnamesource}{author}
      \field{labeltitlesource}{title}
      \field{journaltitle}{Nature}
      \field{number}{7540}
      \field{title}{Human-level control through deep reinforcement learning}
      \field{volume}{518}
      \field{year}{2015}
      \field{pages}{529\bibrangedash 533}
      \range{pages}{5}
    \endentry
    \entry{morozs2015heuristically}{article}{}
      \name{author}{3}{}{%
        {{uniquename=0,uniquepart=base,hash=ac39550643c61589eeb1eaa19ed55c02}{%
           family={Morozs},
           familyi={M\bibinitperiod},
           given={Nils},
           giveni={N\bibinitperiod},
           givenun=0}}%
        {{uniquename=0,uniquepart=base,hash=6ee0454ea9aebd689b3c2484a32314c2}{%
           family={Clarke},
           familyi={C\bibinitperiod},
           given={Tim},
           giveni={T\bibinitperiod},
           givenun=0}}%
        {{uniquename=0,uniquepart=base,hash=cf05b25d45dd98a47002f789c95c9f56}{%
           family={Grace},
           familyi={G\bibinitperiod},
           given={David},
           giveni={D\bibinitperiod},
           givenun=0}}%
      }
      \list{publisher}{1}{%
        {IEEE}%
      }
      \strng{namehash}{9b5ea87cc46a3e5db08acf7f86cdef9d}
      \strng{fullhash}{9b5ea87cc46a3e5db08acf7f86cdef9d}
      \strng{bibnamehash}{9b5ea87cc46a3e5db08acf7f86cdef9d}
      \strng{authorbibnamehash}{9b5ea87cc46a3e5db08acf7f86cdef9d}
      \strng{authornamehash}{9b5ea87cc46a3e5db08acf7f86cdef9d}
      \strng{authorfullhash}{9b5ea87cc46a3e5db08acf7f86cdef9d}
      \field{sortinit}{M}
      \field{sortinithash}{cfd219b90152c06204fab207bc6c7cab}
      \field{extradatescope}{labelyear}
      \field{labeldatesource}{year}
      \field{labelnamesource}{author}
      \field{labeltitlesource}{title}
      \field{journaltitle}{IEEE Access}
      \field{title}{Heuristically accelerated reinforcement learning for dynamic secondary spectrum sharing}
      \field{volume}{3}
      \field{year}{2015}
      \field{pages}{2771\bibrangedash 2783}
      \range{pages}{13}
    \endentry
    \entry{nickles2012system}{article}{}
      \name{author}{1}{}{%
        {{uniquename=0,uniquepart=base,hash=04696f3608e0c1fce4c575d19d49ad4e}{%
           family={Nickles},
           familyi={N\bibinitperiod},
           given={Matthias},
           giveni={M\bibinitperiod},
           givenun=0}}%
      }
      \list{publisher}{1}{%
        {Springer}%
      }
      \strng{namehash}{04696f3608e0c1fce4c575d19d49ad4e}
      \strng{fullhash}{04696f3608e0c1fce4c575d19d49ad4e}
      \strng{bibnamehash}{04696f3608e0c1fce4c575d19d49ad4e}
      \strng{authorbibnamehash}{04696f3608e0c1fce4c575d19d49ad4e}
      \strng{authornamehash}{04696f3608e0c1fce4c575d19d49ad4e}
      \strng{authorfullhash}{04696f3608e0c1fce4c575d19d49ad4e}
      \field{sortinit}{N}
      \field{sortinithash}{f7242c3ed3dc50029fca1be76c497c7c}
      \field{extradatescope}{labelyear}
      \field{labeldatesource}{year}
      \field{labelnamesource}{author}
      \field{labeltitlesource}{title}
      \field{journaltitle}{Logics in Artificial Intelligence}
      \field{title}{A system for the use of answer set programming in reinforcement learning}
      \field{year}{2012}
      \field{pages}{488\bibrangedash 491}
      \range{pages}{4}
    \endentry
    \entry{rettinger2014learning}{inproceedings}{}
      \name{author}{3}{}{%
        {{uniquename=0,uniquepart=base,hash=a537d3e013d810318832399b7ff52c1b}{%
           family={Rettinger},
           familyi={R\bibinitperiod},
           given={Achim},
           giveni={A\bibinitperiod},
           givenun=0}}%
        {{uniquename=0,uniquepart=base,hash=979491fca13c5a83d8b1e171bf1fca5b}{%
           family={Hagemann},
           familyi={H\bibinitperiod},
           given={Alexander},
           giveni={A\bibinitperiod},
           givenun=0}}%
        {{uniquename=0,uniquepart=base,hash=04696f3608e0c1fce4c575d19d49ad4e}{%
           family={Nickles},
           familyi={N\bibinitperiod},
           given={Matthias},
           giveni={M\bibinitperiod},
           givenun=0}}%
      }
      \strng{namehash}{49b197787046c2d0403853519d24df5c}
      \strng{fullhash}{49b197787046c2d0403853519d24df5c}
      \strng{bibnamehash}{49b197787046c2d0403853519d24df5c}
      \strng{authorbibnamehash}{49b197787046c2d0403853519d24df5c}
      \strng{authornamehash}{49b197787046c2d0403853519d24df5c}
      \strng{authorfullhash}{49b197787046c2d0403853519d24df5c}
      \field{sortinit}{R}
      \field{sortinithash}{da6b42bd3ab22fee61abed031ee405f7}
      \field{extradatescope}{labelyear}
      \field{labeldatesource}{year}
      \field{labelnamesource}{author}
      \field{labeltitlesource}{title}
      \field{booktitle}{Workshops at the Twenty-Eighth AAAI Conference on Artificial Intelligence}
      \field{title}{Learning an Optimal Sequence of Questions for the Disambiguation of Queries over Structured Data}
      \field{year}{2014}
    \endentry
    \entry{santos2013investigation}{inproceedings}{}
      \name{author}{2}{}{%
        {{uniquename=0,uniquepart=base,hash=41237ea8bf7ae0fe78282923689404d4}{%
           family={Santos},
           familyi={S\bibinitperiod},
           given={Paulo\bibnamedelima E},
           giveni={P\bibinitperiod\bibinitdelim E\bibinitperiod},
           givenun=0}}%
        {{uniquename=0,uniquepart=base,hash=b59172f317efae10fd52883aad3f170a}{%
           family={Cabalar},
           familyi={C\bibinitperiod},
           given={Pedro},
           giveni={P\bibinitperiod},
           givenun=0}}%
      }
      \strng{namehash}{fa0937a0aa5c279dcec92cde04551d7a}
      \strng{fullhash}{fa0937a0aa5c279dcec92cde04551d7a}
      \strng{bibnamehash}{fa0937a0aa5c279dcec92cde04551d7a}
      \strng{authorbibnamehash}{fa0937a0aa5c279dcec92cde04551d7a}
      \strng{authornamehash}{fa0937a0aa5c279dcec92cde04551d7a}
      \strng{authorfullhash}{fa0937a0aa5c279dcec92cde04551d7a}
      \field{sortinit}{S}
      \field{sortinithash}{322b1d5276f2f6c1bccdcd15920dbee6}
      \field{extradatescope}{labelyear}
      \field{labeldatesource}{year}
      \field{labelnamesource}{author}
      \field{labeltitlesource}{title}
      \field{booktitle}{Proc. of the 11th Intl. Symp. on Logical Formalizations of Commonsense Reasoning (Commonsense\textquoteright{}13), Ayia Napa, Cyprus}
      \field{title}{An investigation of actions, change, space within a hole-loop dichotomy}
      \field{year}{2013}
    \endentry
    \entry{santos2016framing}{article}{}
      \name{author}{2}{}{%
        {{uniquename=0,uniquepart=base,hash=41237ea8bf7ae0fe78282923689404d4}{%
           family={Santos},
           familyi={S\bibinitperiod},
           given={Paulo\bibnamedelima E},
           giveni={P\bibinitperiod\bibinitdelim E\bibinitperiod},
           givenun=0}}%
        {{uniquename=0,uniquepart=base,hash=b59172f317efae10fd52883aad3f170a}{%
           family={Cabalar},
           familyi={C\bibinitperiod},
           given={Pedro},
           giveni={P\bibinitperiod},
           givenun=0}}%
      }
      \list{publisher}{1}{%
        {Taylor \& Francis}%
      }
      \strng{namehash}{fa0937a0aa5c279dcec92cde04551d7a}
      \strng{fullhash}{fa0937a0aa5c279dcec92cde04551d7a}
      \strng{bibnamehash}{fa0937a0aa5c279dcec92cde04551d7a}
      \strng{authorbibnamehash}{fa0937a0aa5c279dcec92cde04551d7a}
      \strng{authornamehash}{fa0937a0aa5c279dcec92cde04551d7a}
      \strng{authorfullhash}{fa0937a0aa5c279dcec92cde04551d7a}
      \field{sortinit}{S}
      \field{sortinithash}{322b1d5276f2f6c1bccdcd15920dbee6}
      \field{extradatescope}{labelyear}
      \field{labeldatesource}{year}
      \field{labelnamesource}{author}
      \field{labeltitlesource}{title}
      \field{journaltitle}{Spatial Cognition \& Computation}
      \field{number}{1}
      \field{title}{Framing holes within a loop hierarchy}
      \field{volume}{16}
      \field{year}{2016}
      \field{pages}{54\bibrangedash 95}
      \range{pages}{42}
    \endentry
    \entry{Sutton-Barto2ed}{book}{}
      \name{author}{2}{}{%
        {{uniquename=0,uniquepart=base,hash=2b25ab354ac9b3006192cd52bd9af626}{%
           family={Sutton},
           familyi={S\bibinitperiod},
           given={Richard\bibnamedelima S},
           giveni={R\bibinitperiod\bibinitdelim S\bibinitperiod},
           givenun=0}}%
        {{uniquename=0,uniquepart=base,hash=4f104417cfd96b2a360b62d8cf110a96}{%
           family={Barto},
           familyi={B\bibinitperiod},
           given={Andrew\bibnamedelima G},
           giveni={A\bibinitperiod\bibinitdelim G\bibinitperiod},
           givenun=0}}%
      }
      \list{location}{1}{%
        {Cambridge, Mass.}%
      }
      \list{publisher}{1}{%
        {{MIT} Press}%
      }
      \strng{namehash}{9767c22ff969d07f27ccd9229b1671a5}
      \strng{fullhash}{9767c22ff969d07f27ccd9229b1671a5}
      \strng{bibnamehash}{9767c22ff969d07f27ccd9229b1671a5}
      \strng{authorbibnamehash}{9767c22ff969d07f27ccd9229b1671a5}
      \strng{authornamehash}{9767c22ff969d07f27ccd9229b1671a5}
      \strng{authorfullhash}{9767c22ff969d07f27ccd9229b1671a5}
      \field{sortinit}{S}
      \field{sortinithash}{322b1d5276f2f6c1bccdcd15920dbee6}
      \field{extradatescope}{labelyear}
      \field{labeldatesource}{year}
      \field{labelnamesource}{author}
      \field{labeltitlesource}{title}
      \field{title}{Reinforcement learning an introduction -- Second edition, in progress (Complete Draft)}
      \field{urlday}{16}
      \field{urlmonth}{2}
      \field{urlyear}{2018}
      \field{year}{2018}
      \field{urldateera}{ce}
    \endentry
    \entry{van2009logic}{inproceedings}{}
      \name{author}{1}{}{%
        {{uniquename=0,uniquepart=base,hash=04a099932755a7ae4cb49422bae65560}{%
           family={Van\bibnamedelima Otterlo},
           familyi={V\bibinitperiod\bibinitdelim O\bibinitperiod},
           given={Martijn},
           giveni={M\bibinitperiod},
           givenun=0}}%
      }
      \strng{namehash}{04a099932755a7ae4cb49422bae65560}
      \strng{fullhash}{04a099932755a7ae4cb49422bae65560}
      \strng{bibnamehash}{04a099932755a7ae4cb49422bae65560}
      \strng{authorbibnamehash}{04a099932755a7ae4cb49422bae65560}
      \strng{authornamehash}{04a099932755a7ae4cb49422bae65560}
      \strng{authorfullhash}{04a099932755a7ae4cb49422bae65560}
      \field{sortinit}{V}
      \field{sortinithash}{75dd7385c90b2252c3ae853a80ca853b}
      \field{extradatescope}{labelyear}
      \field{labeldatesource}{year}
      \field{labelnamesource}{author}
      \field{labeltitlesource}{title}
      \field{booktitle}{Knowledge representation}
      \field{title}{The logic of adaptive behavior}
      \field{year}{2009}
    \endentry
    \entry{walkega2017non}{article}{}
      \name{author}{3}{}{%
        {{uniquename=0,uniquepart=base,hash=1becd2bde0fa2d596441f6d1724b1137}{%
           family={Wa{\l{}}{\k{e}}ga},
           familyi={W\bibinitperiod},
           given={Przemys{\l{}}aw\bibnamedelima Andrzej},
           giveni={P\bibinitperiod\bibinitdelim A\bibinitperiod},
           givenun=0}}%
        {{uniquename=0,uniquepart=base,hash=abde7a1c16f4c047133b153d94898051}{%
           family={Schultz},
           familyi={S\bibinitperiod},
           given={Carl},
           giveni={C\bibinitperiod},
           givenun=0}}%
        {{uniquename=0,uniquepart=base,hash=86d90ab29e617d47378c2c6f15219129}{%
           family={Bhatt},
           familyi={B\bibinitperiod},
           given={Mehul},
           giveni={M\bibinitperiod},
           givenun=0}}%
      }
      \list{publisher}{1}{%
        {Cambridge University Press}%
      }
      \strng{namehash}{dab585fa37570838053384950512cf7c}
      \strng{fullhash}{dab585fa37570838053384950512cf7c}
      \strng{bibnamehash}{dab585fa37570838053384950512cf7c}
      \strng{authorbibnamehash}{dab585fa37570838053384950512cf7c}
      \strng{authornamehash}{dab585fa37570838053384950512cf7c}
      \strng{authorfullhash}{dab585fa37570838053384950512cf7c}
      \field{sortinit}{W}
      \field{sortinithash}{ecb89ff85896a47dc313960773ac311d}
      \field{extradatescope}{labelyear}
      \field{labeldatesource}{year}
      \field{labelnamesource}{author}
      \field{labeltitlesource}{title}
      \field{journaltitle}{Theory and Practice of Logic Programming}
      \field{number}{2}
      \field{title}{Non-monotonic spatial reasoning with answer set programming modulo theories}
      \field{volume}{17}
      \field{year}{2017}
      \field{pages}{205\bibrangedash 225}
      \range{pages}{21}
    \endentry
    \entry{wu2016training}{article}{}
      \name{author}{2}{}{%
        {{uniquename=0,uniquepart=base,hash=b626dcc418c3a5c74cfaa4c5e643a71f}{%
           family={Wu},
           familyi={W\bibinitperiod},
           given={Yuxin},
           giveni={Y\bibinitperiod},
           givenun=0}}%
        {{uniquename=0,uniquepart=base,hash=074caf23cc82a3b80220324f240e9327}{%
           family={Tian},
           familyi={T\bibinitperiod},
           given={Yuandong},
           giveni={Y\bibinitperiod},
           givenun=0}}%
      }
      \strng{namehash}{c206a25c82cc2baf9c85da266c438cf9}
      \strng{fullhash}{c206a25c82cc2baf9c85da266c438cf9}
      \strng{bibnamehash}{c206a25c82cc2baf9c85da266c438cf9}
      \strng{authorbibnamehash}{c206a25c82cc2baf9c85da266c438cf9}
      \strng{authornamehash}{c206a25c82cc2baf9c85da266c438cf9}
      \strng{authorfullhash}{c206a25c82cc2baf9c85da266c438cf9}
      \field{sortinit}{W}
      \field{sortinithash}{ecb89ff85896a47dc313960773ac311d}
      \field{extradatescope}{labelyear}
      \field{labeldatesource}{year}
      \field{labelnamesource}{author}
      \field{labeltitlesource}{title}
      \field{title}{Training agent for first-person shooter game with actor-critic curriculum learning}
      \field{year}{2016}
    \endentry
    \entry{yang2018peorl}{article}{}
      \name{author}{4}{}{%
        {{uniquename=0,uniquepart=base,hash=c6f8ea716203e2815920b7ed0b761ec5}{%
           family={Yang},
           familyi={Y\bibinitperiod},
           given={Fangkai},
           giveni={F\bibinitperiod},
           givenun=0}}%
        {{uniquename=0,uniquepart=base,hash=523eebf24c5b09cc0bce1613ded5ce4f}{%
           family={Lyu},
           familyi={L\bibinitperiod},
           given={Daoming},
           giveni={D\bibinitperiod},
           givenun=0}}%
        {{uniquename=0,uniquepart=base,hash=fa97927921a403cfe822973e31081dca}{%
           family={Liu},
           familyi={L\bibinitperiod},
           given={Bo},
           giveni={B\bibinitperiod},
           givenun=0}}%
        {{uniquename=0,uniquepart=base,hash=8dd56783bddfd654f052b2a09f837673}{%
           family={Gustafson},
           familyi={G\bibinitperiod},
           given={Steven},
           giveni={S\bibinitperiod},
           givenun=0}}%
      }
      \strng{namehash}{b637a10e6deea6491395f491056de0dd}
      \strng{fullhash}{ecb7161ae322df76d4cf8b8d3db59afc}
      \strng{bibnamehash}{b637a10e6deea6491395f491056de0dd}
      \strng{authorbibnamehash}{b637a10e6deea6491395f491056de0dd}
      \strng{authornamehash}{b637a10e6deea6491395f491056de0dd}
      \strng{authorfullhash}{ecb7161ae322df76d4cf8b8d3db59afc}
      \field{sortinit}{Y}
      \field{sortinithash}{b8d711a035f7be9840c721c82920477e}
      \field{extradatescope}{labelyear}
      \field{labeldatesource}{year}
      \field{labelnamesource}{author}
      \field{labeltitlesource}{title}
      \field{journaltitle}{arXiv preprint arXiv:1804.07779}
      \field{title}{PEORL: Integrating Symbolic Planning and Hierarchical Reinforcement Learning for Robust Decision-Making}
      \field{year}{2018}
    \endentry
    \entry{yang2014planning}{inproceedings}{}
      \name{author}{4}{}{%
        {{uniquename=0,uniquepart=base,hash=c6f8ea716203e2815920b7ed0b761ec5}{%
           family={Yang},
           familyi={Y\bibinitperiod},
           given={Fangkai},
           giveni={F\bibinitperiod},
           givenun=0}}%
        {{uniquename=0,uniquepart=base,hash=ba53c526b1a2fc53b09537b9a89bda3c}{%
           family={Khandelwal},
           familyi={K\bibinitperiod},
           given={Piyush},
           giveni={P\bibinitperiod},
           givenun=0}}%
        {{uniquename=0,uniquepart=base,hash=eead72a78c4d6007343bdccf41058394}{%
           family={Leonetti},
           familyi={L\bibinitperiod},
           given={Matteo},
           giveni={M\bibinitperiod},
           givenun=0}}%
        {{uniquename=0,uniquepart=base,hash=3f42a499da2cddc0bae71b76c81f7c46}{%
           family={Stone},
           familyi={S\bibinitperiod},
           given={Peter},
           giveni={P\bibinitperiod},
           givenun=0}}%
      }
      \strng{namehash}{b637a10e6deea6491395f491056de0dd}
      \strng{fullhash}{af29bbecb36ccc53f5caefb47e8e9c6b}
      \strng{bibnamehash}{b637a10e6deea6491395f491056de0dd}
      \strng{authorbibnamehash}{b637a10e6deea6491395f491056de0dd}
      \strng{authornamehash}{b637a10e6deea6491395f491056de0dd}
      \strng{authorfullhash}{af29bbecb36ccc53f5caefb47e8e9c6b}
      \field{sortinit}{Y}
      \field{sortinithash}{b8d711a035f7be9840c721c82920477e}
      \field{extradatescope}{labelyear}
      \field{labeldatesource}{year}
      \field{labelnamesource}{author}
      \field{labeltitlesource}{title}
      \field{booktitle}{AAAI Spring 2014 symposium on knowledge representation and reasoning in robotics (AAAI-SSS)}
      \field{title}{Planning in answer set programming while learning action costs for mobile robots}
      \field{year}{2014}
    \endentry
    \entry{ZMWW17}{inproceedings}{}
      \name{author}{4}{}{%
        {{uniquename=0,uniquepart=base,hash=15eb3854393b16b63a65d7c0449b85cf}{%
           family={Zamani},
           familyi={Z\bibinitperiod},
           given={Mohammad\bibnamedelima Ali},
           giveni={M\bibinitperiod\bibinitdelim A\bibinitperiod},
           givenun=0}}%
        {{uniquename=0,uniquepart=base,hash=bddb4041537ceeb6a2a528c6fb4bd079}{%
           family={Magg},
           familyi={M\bibinitperiod},
           given={Sven},
           giveni={S\bibinitperiod},
           givenun=0}}%
        {{uniquename=0,uniquepart=base,hash=8d508e692086ae6fb0253c97dae551ae}{%
           family={Weber},
           familyi={W\bibinitperiod},
           given={Cornelius},
           giveni={C\bibinitperiod},
           givenun=0}}%
        {{uniquename=0,uniquepart=base,hash=a23f7301779c6560c1784590c4bc50aa}{%
           family={Wermter},
           familyi={W\bibinitperiod},
           given={Stefan},
           giveni={S\bibinitperiod},
           givenun=0}}%
      }
      \strng{namehash}{af8cffe9b09ce8c94092942c462b8876}
      \strng{fullhash}{064200a50b35cd641767a76a0e92530a}
      \strng{bibnamehash}{af8cffe9b09ce8c94092942c462b8876}
      \strng{authorbibnamehash}{af8cffe9b09ce8c94092942c462b8876}
      \strng{authornamehash}{af8cffe9b09ce8c94092942c462b8876}
      \strng{authorfullhash}{064200a50b35cd641767a76a0e92530a}
      \field{sortinit}{Z}
      \field{sortinithash}{156173bd08b075d7295bc3e0f4735a04}
      \field{extradatescope}{labelyear}
      \field{labeldatesource}{year}
      \field{labelnamesource}{author}
      \field{labeltitlesource}{title}
      \field{booktitle}{2nd Workshop on Behavior Adaptation, Interaction and Learning for Assistive Robotics (BAILAR) on Robot and Human Interactive Communication (RO-MAN), 26th IEEE International Symposium on}
      \field{title}{Deep Reinforcement Learning using Symbolic Representation for Performing Spoken Language Instructions}
      \field{year}{2017}
    \endentry
    \entry{zhang2017route}{article}{}
      \name{author}{3}{}{%
        {{uniquename=1,uniquepart=given,hash=47d536b8da1c4f8913c7d8925892abc0}{%
           family={Zhang},
           familyi={Z\bibinitperiod},
           given={Fengyun},
           giveni={F\bibinitperiod},
           givenun=1}}%
        {{uniquename=0,uniquepart=base,hash=64f23025ba2b8e74beca44ae48b49cdd}{%
           family={Duan},
           familyi={D\bibinitperiod},
           given={Shukai},
           giveni={S\bibinitperiod},
           givenun=0}}%
        {{uniquename=0,uniquepart=base,hash=baff16623276cc3f65117c708b3c4f14}{%
           family={Wang},
           familyi={W\bibinitperiod},
           given={Lidan},
           giveni={L\bibinitperiod},
           givenun=0}}%
      }
      \list{publisher}{1}{%
        {Springer}%
      }
      \strng{namehash}{8dfa9852bcc8c35923d7e5502bf08883}
      \strng{fullhash}{8dfa9852bcc8c35923d7e5502bf08883}
      \strng{bibnamehash}{8dfa9852bcc8c35923d7e5502bf08883}
      \strng{authorbibnamehash}{8dfa9852bcc8c35923d7e5502bf08883}
      \strng{authornamehash}{8dfa9852bcc8c35923d7e5502bf08883}
      \strng{authorfullhash}{8dfa9852bcc8c35923d7e5502bf08883}
      \field{sortinit}{Z}
      \field{sortinithash}{156173bd08b075d7295bc3e0f4735a04}
      \field{extradatescope}{labelyear}
      \field{labeldatesource}{year}
      \field{labelnamesource}{author}
      \field{labeltitlesource}{title}
      \field{journaltitle}{Cognitive neurodynamics}
      \field{number}{3}
      \field{title}{Route searching based on neural networks and heuristic reinforcement learning}
      \field{volume}{11}
      \field{year}{2017}
      \field{pages}{245\bibrangedash 258}
      \range{pages}{14}
    \endentry
    \entry{zhang2015mixed}{article}{}
      \name{author}{3}{}{%
        {{uniquename=1,uniquepart=given,hash=32a87172065ad08fcde987f9bc4473f7}{%
           family={Zhang},
           familyi={Z\bibinitperiod},
           given={Shiqi},
           giveni={S\bibinitperiod},
           givenun=1}}%
        {{uniquename=0,uniquepart=base,hash=61d2ead93378c5d594ad317cf5917a22}{%
           family={Sridharan},
           familyi={S\bibinitperiod},
           given={Mohan},
           giveni={M\bibinitperiod},
           givenun=0}}%
        {{uniquename=0,uniquepart=base,hash=be36fb93f4ce07fa8081c35c6a93b1f7}{%
           family={Wyatt},
           familyi={W\bibinitperiod},
           given={Jeremy\bibnamedelima L},
           giveni={J\bibinitperiod\bibinitdelim L\bibinitperiod},
           givenun=0}}%
      }
      \list{publisher}{1}{%
        {IEEE}%
      }
      \strng{namehash}{4fd3d38494ce8099d4777e3e03836b28}
      \strng{fullhash}{4fd3d38494ce8099d4777e3e03836b28}
      \strng{bibnamehash}{4fd3d38494ce8099d4777e3e03836b28}
      \strng{authorbibnamehash}{4fd3d38494ce8099d4777e3e03836b28}
      \strng{authornamehash}{4fd3d38494ce8099d4777e3e03836b28}
      \strng{authorfullhash}{4fd3d38494ce8099d4777e3e03836b28}
      \field{sortinit}{Z}
      \field{sortinithash}{156173bd08b075d7295bc3e0f4735a04}
      \field{extradatescope}{labelyear}
      \field{labeldatesource}{year}
      \field{labelnamesource}{author}
      \field{labeltitlesource}{title}
      \field{journaltitle}{IEEE Transactions on Robotics}
      \field{number}{3}
      \field{title}{Mixed logical inference and probabilistic planning for robots in unreliable worlds}
      \field{volume}{31}
      \field{year}{2015}
      \field{pages}{699\bibrangedash 713}
      \range{pages}{15}
    \endentry
  \enddatalist
\endrefsection
\endinput

