[0] Config.pm:354> INFO - This is Biber 2.7
[0] Config.pm:357> INFO - Logfile is 'referencias.blg'
[89] biber-MSWIN64:303> INFO - === 
[577] Utils.pm:180> ERROR - Cannot find control file 'referencias.bcf'! - did you pass the "backend=biber" option to BibLaTeX?
[577] Biber.pm:113> INFO - ERRORS: 1
