\relax 
\citation{cabalar2011formalising}
\@writefile{toc}{\contentsline {section}{\numberline {I}Introduction}{1}}
\@writefile{toc}{\contentsline {section}{\numberline {II}Literature Review}{1}}
\@writefile{toc}{\contentsline {section}{\numberline {III}Background}{1}}
\@writefile{toc}{\contentsline {subsection}{\numberline {\unhbox \voidb@x \hbox {III-A}}Domain}{1}}
\@writefile{lof}{\contentsline {figure}{\numberline {1}{\ignorespaces A diagrammatic representation of the spatial puzzle (domain) studied in this article.}}{1}}
\newlabel{QuebraCabecaBRACIS}{{1}{1}}
\citation{Sutton-Barto2ed}
\citation{Sutton-Barto2ed}
\citation{Sutton-Barto2ed}
\citation{eiter2009answer}
\citation{Hoffman2013}
\citation{lifschitz2008answer}
\citation{lifschitz2008answer}
\citation{gelfond2008answer}
\citation{gelfond1988stable}
\citation{ferreira2018method}
\citation{lifschitz2008answer}
\@writefile{toc}{\contentsline {subsection}{\numberline {\unhbox \voidb@x \hbox {III-B}}Reinforcement Learning (RL)}{2}}
\newlabel{rlSection}{{\unhbox \voidb@x \hbox {III-B}}{2}}
\newlabel{eq:transictionFunctionEq}{{1}{2}}
\newlabel{eq:rewardFunctoinEq}{{2}{2}}
\newlabel{eq:QLearningEq}{{3}{2}}
\@writefile{toc}{\contentsline {subsection}{\numberline {\unhbox \voidb@x \hbox {III-C}}Answer Set Programming (ASP)}{2}}
\newlabel{aspSection}{{\unhbox \voidb@x \hbox {III-C}}{2}}
\newlabel{eq:hornClauseASP}{{4}{2}}
\citation{ferreira2018method}
\citation{ferreira2018method}
\citation{ferreira2018method}
\citation{ferreira2018method}
\citation{ferreira2018method}
\citation{ferreira2018method}
\citation{ferreira2018method}
\newlabel{eq:choiceRuleASP}{{5}{3}}
\@writefile{toc}{\contentsline {subsection}{\numberline {\unhbox \voidb@x \hbox {III-D}}Online ASP for MDP (oASP(MDP))}{3}}
\newlabel{eq:aspStateTransitions}{{6}{3}}
\newlabel{alg:ifline}{{6}{3}}
\newlabel{alg:elseline}{{11}{3}}
\newlabel{alg:update}{{15}{3}}
\@writefile{loa}{\contentsline {algocf}{\numberline {1}{\ignorespaces The oASP(MDP) Algorithm created by \cite  {ferreira2018method}.}}{3}}
\newlabel{alg:oaspmdp}{{1}{3}}
\citation{cabalar2011formalising}
\citation{cabalar2011formalising}
\citation{ferreira2018method}
\citation{cabalar2011formalising}
\@writefile{toc}{\contentsline {section}{\numberline {IV}Methodology}{4}}
\newlabel{eq:stateRepresentation}{{7}{4}}
\bibstyle{IEEEtran}
\bibdata{references}
\bibcite{cabalar2011formalising}{1}
\bibcite{Sutton-Barto2ed}{2}
\bibcite{eiter2009answer}{3}
\bibcite{Hoffman2013}{4}
\bibcite{lifschitz2008answer}{5}
\bibcite{gelfond2008answer}{6}
\bibcite{gelfond1988stable}{7}
\bibcite{ferreira2018method}{8}
\@writefile{toc}{\contentsline {section}{\numberline {V}Experiments and Results}{5}}
\@writefile{toc}{\contentsline {section}{\numberline {VI}Conclusion}{5}}
\@writefile{toc}{\contentsline {section}{References}{5}}
