\relax 
\@writefile{lof}{\contentsline {figure}{\numberline {1}{\ignorespaces Fisherman's Folly Puzzle.\relax }}{3}}
\providecommand*\caption@xref[2]{\@setref\relax\@undefined{#1}}
\newlabel{fig:FishermansFolly}{{1}{3}}
\@writefile{toc}{\contentsline {section}{\numberline {1}Introduction}{3}}
\@writefile{toc}{\contentsline {subsection}{\numberline {1.1}Motivation}{3}}
\@writefile{toc}{\contentsline {subsection}{\numberline {1.2}Goal}{3}}
\@writefile{toc}{\contentsline {subsection}{\numberline {1.3}Methodology}{3}}
\@writefile{toc}{\contentsline {section}{\numberline {2}Theory}{4}}
\@writefile{lof}{\contentsline {figure}{\numberline {2}{\ignorespaces How the parts of the system interact with each other.\relax }}{5}}
\newlabel{fig:interaction}{{2}{5}}
\@writefile{toc}{\contentsline {section}{\numberline {3}Proposal}{5}}
\@writefile{lof}{\contentsline {figure}{\numberline {3}{\ignorespaces Knowledge of the AGENT.\relax }}{8}}
\newlabel{fig:aspCodeUpdate}{{3}{8}}
\@writefile{lof}{\contentsline {figure}{\numberline {4}{\ignorespaces Q-Table.\relax }}{10}}
\newlabel{fig:qTable}{{4}{10}}
\@writefile{toc}{\contentsline {section}{\numberline {4}Results}{10}}
\@writefile{toc}{\contentsline {section}{\numberline {5}Conclusion}{11}}
\@writefile{toc}{\contentsline {section}{\numberline {6}Reference}{12}}
